EESchema Schematic File Version 2
LIBS:power
LIBS:device
LIBS:transistors
LIBS:conn
LIBS:linear
LIBS:regul
LIBS:74xx
LIBS:cmos4000
LIBS:adc-dac
LIBS:memory
LIBS:xilinx
LIBS:microcontrollers
LIBS:dsp
LIBS:microchip
LIBS:analog_switches
LIBS:motorola
LIBS:texas
LIBS:intel
LIBS:audio
LIBS:interface
LIBS:digital-audio
LIBS:philips
LIBS:display
LIBS:cypress
LIBS:siliconi
LIBS:opto
LIBS:atmel
LIBS:contrib
LIBS:valves
LIBS:uc3842
LIBS:addon
LIBS:project-cache
EELAYER 25 0
EELAYER END
$Descr A4 11693 8268
encoding utf-8
Sheet 1 1
Title "Power Supply"
Date "2017-02-27"
Rev "Rev 0.2"
Comp "Illumium.Org"
Comment1 ""
Comment2 ""
Comment3 ""
Comment4 ""
$EndDescr
$Comp
L UC3842A U100
U 1 1 577E79BD
P 4600 2900
F 0 "U100" H 4600 3900 60  0000 C CNN
F 1 "UC3842A" H 4600 1900 60  0000 C CNN
F 2 "Local:SOIC-8_3.9x4.9mm_Pitch1.27mm" H 4550 2400 60  0001 C CNN
F 3 "" H 4550 2400 60  0000 C CNN
	1    4600 2900
	1    0    0    -1  
$EndComp
$Comp
L R R131
U 1 1 577E8CAE
P 1600 2750
F 0 "R131" V 1680 2750 50  0000 C CNN
F 1 "10K" V 1600 2750 50  0000 C CNN
F 2 "Local:R_0603" V 1530 2750 50  0001 C CNN
F 3 "" H 1600 2750 50  0000 C CNN
	1    1600 2750
	-1   0    0    -1  
$EndComp
$Comp
L C C132
U 1 1 577E8D0D
P 1800 2750
F 0 "C132" H 1825 2850 50  0000 L CNN
F 1 "1n" H 1825 2650 50  0000 L CNN
F 2 "Local:C_0603" H 1838 2600 50  0001 C CNN
F 3 "" H 1800 2750 50  0000 C CNN
	1    1800 2750
	1    0    0    -1  
$EndComp
Wire Wire Line
	1600 2500 2100 2500
Wire Wire Line
	1800 2500 1800 2600
Wire Wire Line
	1600 2500 1600 2600
Connection ~ 1800 2500
Wire Wire Line
	1800 2900 1800 3000
Wire Wire Line
	1600 3000 2100 3000
Wire Wire Line
	1600 3000 1600 2900
Connection ~ 1800 3000
Wire Wire Line
	6200 3600 6300 3600
Wire Wire Line
	6300 3600 6300 3700
$Comp
L GNDPWR #PWR01
U 1 1 577E8D96
P 6300 3700
F 0 "#PWR01" H 6300 3500 50  0001 C CNN
F 1 "GNDPWR" H 6300 3570 50  0000 C CNN
F 2 "" H 6300 3650 50  0000 C CNN
F 3 "" H 6300 3650 50  0000 C CNN
	1    6300 3700
	1    0    0    -1  
$EndComp
Wire Wire Line
	2700 3600 3000 3600
Wire Wire Line
	1400 4000 1400 4200
$Comp
L C C130
U 1 1 577E8DD6
P 1400 4350
F 0 "C130" H 1425 4450 50  0000 L CNN
F 1 "15n" H 1425 4250 50  0000 L CNN
F 2 "Local:C_0603" H 1438 4200 50  0001 C CNN
F 3 "" H 1400 4350 50  0000 C CNN
	1    1400 4350
	-1   0    0    -1  
$EndComp
$Comp
L GNDPWR #PWR02
U 1 1 577E8E2A
P 1400 4600
F 0 "#PWR02" H 1400 4400 50  0001 C CNN
F 1 "GNDPWR" H 1400 4470 50  0000 C CNN
F 2 "" H 1400 4550 50  0000 C CNN
F 3 "" H 1400 4550 50  0000 C CNN
	1    1400 4600
	1    0    0    -1  
$EndComp
Wire Wire Line
	1400 4500 1400 4600
$Comp
L R R140
U 1 1 577E8EE5
P 4500 5150
F 0 "R140" V 4580 5150 50  0000 C CNN
F 1 "1K" V 4500 5150 50  0000 C CNN
F 2 "Local:R_0603" V 4430 5150 50  0001 C CNN
F 3 "" H 4500 5150 50  0000 C CNN
	1    4500 5150
	-1   0    0    -1  
$EndComp
Wire Wire Line
	4500 5800 4500 5900
$Comp
L GNDPWR #PWR03
U 1 1 577E8F4E
P 4500 5900
F 0 "#PWR03" H 4500 5700 50  0001 C CNN
F 1 "GNDPWR" H 4500 5770 50  0000 C CNN
F 2 "" H 4500 5850 50  0000 C CNN
F 3 "" H 4500 5850 50  0000 C CNN
	1    4500 5900
	1    0    0    -1  
$EndComp
$Comp
L PC817 U140
U 1 1 577E8FE7
P 5100 5300
F 0 "U140" H 5100 5500 50  0000 C CNN
F 1 "PC817C" H 5100 5100 50  0000 C CNN
F 2 "Local:SOP-4_W7.62mm" H 4900 5100 50  0001 L CIN
F 3 "" H 5100 5300 50  0000 L CNN
	1    5100 5300
	-1   0    0    -1  
$EndComp
$Comp
L R R130
U 1 1 577E91B8
P 1400 3850
F 0 "R130" V 1480 3850 50  0000 C CNN
F 1 "680" V 1400 3850 50  0000 C CNN
F 2 "Local:R_0603" V 1330 3850 50  0001 C CNN
F 3 "" H 1400 3850 50  0000 C CNN
	1    1400 3850
	-1   0    0    1   
$EndComp
Wire Wire Line
	6600 2400 7200 2400
Wire Wire Line
	7100 2300 7100 2500
$Comp
L R R110
U 1 1 577E94B2
P 7100 2150
F 0 "R110" V 7180 2150 50  0000 C CNN
F 1 "68K" V 7100 2150 50  0000 C CNN
F 2 "Local:R_1206" V 7030 2150 50  0001 C CNN
F 3 "" H 7100 2150 50  0000 C CNN
	1    7100 2150
	-1   0    0    -1  
$EndComp
Wire Wire Line
	7100 2000 7100 1800
Connection ~ 7100 2400
$Comp
L C C131
U 1 1 577E98AF
P 2200 4350
F 0 "C131" H 2225 4450 50  0000 L CNN
F 1 "100n" H 2225 4250 50  0000 L CNN
F 2 "Local:C_0805" H 2238 4200 50  0001 C CNN
F 3 "" H 2200 4350 50  0000 C CNN
	1    2200 4350
	-1   0    0    -1  
$EndComp
Wire Wire Line
	2200 4500 2200 4600
$Comp
L GNDPWR #PWR04
U 1 1 577E992E
P 2200 4600
F 0 "#PWR04" H 2200 4400 50  0001 C CNN
F 1 "GNDPWR" H 2200 4470 50  0000 C CNN
F 2 "" H 2200 4550 50  0000 C CNN
F 3 "" H 2200 4550 50  0000 C CNN
	1    2200 4600
	1    0    0    -1  
$EndComp
$Comp
L Q_NMOS_GDS Q120
U 1 1 577E9A51
P 7900 3200
F 0 "Q120" H 7900 3350 50  0000 R CNN
F 1 "SPD60N80C3" V 8150 3200 50  0000 C CNN
F 2 "Local:TO-252-2Lead" H 8100 3300 50  0001 C CNN
F 3 "" H 7900 3200 50  0000 C CNN
	1    7900 3200
	1    0    0    -1  
$EndComp
Wire Wire Line
	7000 3200 7200 3200
$Comp
L R R120
U 1 1 577E9B21
P 7350 3200
F 0 "R120" V 7430 3200 50  0000 C CNN
F 1 "22R" V 7350 3200 50  0000 C CNN
F 2 "Local:R_0603" V 7280 3200 50  0001 C CNN
F 3 "" H 7350 3200 50  0000 C CNN
	1    7350 3200
	0    1    -1   0   
$EndComp
Wire Wire Line
	7600 3200 7600 3700
Wire Wire Line
	7500 3200 7700 3200
Connection ~ 7600 3200
Wire Wire Line
	8000 3400 8000 3700
$Comp
L R R122
U 1 1 577E9EDE
P 8000 3850
F 0 "R122" V 8080 3850 50  0000 C CNN
F 1 "1R" V 8000 3850 50  0000 C CNN
F 2 "Local:R_1206" V 7930 3850 50  0001 C CNN
F 3 "" H 8000 3850 50  0000 C CNN
	1    8000 3850
	-1   0    0    -1  
$EndComp
Wire Wire Line
	8000 4000 8000 4100
$Comp
L GNDPWR #PWR05
U 1 1 577EA03B
P 8000 4100
F 0 "#PWR05" H 8000 3900 50  0001 C CNN
F 1 "GNDPWR" H 8000 3970 50  0000 C CNN
F 2 "" H 8000 4050 50  0000 C CNN
F 3 "" H 8000 4050 50  0000 C CNN
	1    8000 4100
	1    0    0    -1  
$EndComp
Wire Wire Line
	8000 3600 8100 3600
Connection ~ 8000 3600
$Comp
L R R123
U 1 1 577EA0AD
P 8250 3600
F 0 "R123" V 8330 3600 50  0000 C CNN
F 1 "1K" V 8250 3600 50  0000 C CNN
F 2 "Local:R_0603" V 8180 3600 50  0001 C CNN
F 3 "" H 8250 3600 50  0000 C CNN
	1    8250 3600
	0    1    -1   0   
$EndComp
$Comp
L C C120
U 1 1 577EA10A
P 8500 3850
F 0 "C120" H 8525 3950 50  0000 L CNN
F 1 "470p" H 8525 3750 50  0000 L CNN
F 2 "Local:C_0603" H 8538 3700 50  0001 C CNN
F 3 "" H 8500 3850 50  0000 C CNN
	1    8500 3850
	-1   0    0    -1  
$EndComp
Wire Wire Line
	8400 3600 8800 3600
Wire Wire Line
	8500 3600 8500 3700
Wire Wire Line
	8500 4000 8500 4100
$Comp
L GNDPWR #PWR06
U 1 1 577EA260
P 8500 4100
F 0 "#PWR06" H 8500 3900 50  0001 C CNN
F 1 "GNDPWR" H 8500 3970 50  0000 C CNN
F 2 "" H 8500 4050 50  0000 C CNN
F 3 "" H 8500 4050 50  0000 C CNN
	1    8500 4100
	1    0    0    -1  
$EndComp
$Comp
L TRANS_4X T100
U 1 1 577EA8ED
P 8700 2000
F 0 "T100" H 8700 2500 50  0000 C CNN
F 1 "TRANS_4X" H 8700 1500 50  0000 C CNN
F 2 "Local:EE25_6V_8P" H 8700 2000 60  0001 C CNN
F 3 "" H 8700 2000 60  0000 C CNN
	1    8700 2000
	1    0    0    -1  
$EndComp
Wire Wire Line
	8000 1500 8000 1600
$Comp
L VPP #PWR07
U 1 1 577EAC36
P 8000 1500
F 0 "#PWR07" H 8000 1350 50  0001 C CNN
F 1 "VPP" H 8000 1650 50  0000 C CNN
F 2 "" H 8000 1500 50  0000 C CNN
F 3 "" H 8000 1500 50  0000 C CNN
	1    8000 1500
	1    0    0    -1  
$EndComp
Wire Wire Line
	7950 1600 8300 1600
$Comp
L D D121
U 1 1 577EAE78
P 7750 1900
F 0 "D121" H 7750 2000 50  0000 C CNN
F 1 "FR107" H 7750 1800 50  0000 C CNN
F 2 "Local:D_SOD-123" H 7750 1900 50  0001 C CNN
F 3 "" H 7750 1900 50  0000 C CNN
	1    7750 1900
	1    0    0    -1  
$EndComp
Wire Wire Line
	7900 1900 8300 1900
Wire Wire Line
	8300 2100 8200 2100
Wire Wire Line
	8200 2100 8200 2200
$Comp
L GNDPWR #PWR08
U 1 1 577EBC5A
P 8200 2200
F 0 "#PWR08" H 8200 2000 50  0001 C CNN
F 1 "GNDPWR" H 8200 2070 50  0000 C CNN
F 2 "" H 8200 2150 50  0000 C CNN
F 3 "" H 8200 2150 50  0000 C CNN
	1    8200 2200
	1    0    0    -1  
$EndComp
$Comp
L D D110
U 1 1 577EBEA7
P 7750 2400
F 0 "D110" H 7750 2500 50  0000 C CNN
F 1 "1N4148" H 7750 2300 50  0000 C CNN
F 2 "Local:D_MiniMELF_Standard" H 7750 2400 50  0001 C CNN
F 3 "" H 7750 2400 50  0000 C CNN
	1    7750 2400
	1    0    0    -1  
$EndComp
Wire Wire Line
	7600 2400 7500 2400
$Comp
L R R112
U 1 1 577EC035
P 7350 2400
F 0 "R112" V 7430 2400 50  0000 C CNN
F 1 "4R7" V 7350 2400 50  0000 C CNN
F 2 "Local:R_1206" V 7280 2400 50  0001 C CNN
F 3 "" H 7350 2400 50  0000 C CNN
	1    7350 2400
	0    1    -1   0   
$EndComp
$Comp
L CP C111
U 1 1 577EC1F5
P 7100 2650
F 0 "C111" H 7125 2750 50  0000 L CNN
F 1 "47u 50V" H 6950 2550 50  0000 L CNN
F 2 "Local:CP_Radial_D6.3mm_P2.50mm" H 7138 2500 50  0001 C CNN
F 3 "" H 7100 2650 50  0000 C CNN
	1    7100 2650
	1    0    0    -1  
$EndComp
Wire Wire Line
	7100 2800 7100 2900
$Comp
L GNDPWR #PWR09
U 1 1 577EC815
P 7100 2900
F 0 "#PWR09" H 7100 2700 50  0001 C CNN
F 1 "GNDPWR" H 7100 2770 50  0000 C CNN
F 2 "" H 7100 2850 50  0000 C CNN
F 3 "" H 7100 2850 50  0000 C CNN
	1    7100 2900
	1    0    0    -1  
$EndComp
Wire Wire Line
	8300 2400 7900 2400
Wire Wire Line
	7550 1600 7500 1600
Wire Wire Line
	7500 1600 7500 1900
Wire Wire Line
	7500 1900 7600 1900
Connection ~ 8000 1600
$Comp
L D D150
U 1 1 577EDBB7
P 9350 2100
F 0 "D150" H 9350 2200 50  0000 C CNN
F 1 "ES3D" H 9350 2000 50  0000 C CNN
F 2 "Local:D_SMC_Standard" H 9350 2100 50  0001 C CNN
F 3 "" H 9350 2100 50  0000 C CNN
	1    9350 2100
	-1   0    0    -1  
$EndComp
$Comp
L D D160
U 1 1 577EDF6F
P 9350 1600
F 0 "D160" H 9350 1700 50  0000 C CNN
F 1 "US1D" H 9350 1500 50  0000 C CNN
F 2 "Local:D_SMA_Standard" H 9350 1600 50  0001 C CNN
F 3 "" H 9350 1600 50  0000 C CNN
	1    9350 1600
	-1   0    0    -1  
$EndComp
Wire Wire Line
	9200 2400 9100 2400
Wire Wire Line
	9200 2100 9100 2100
$Comp
L CP C150
U 1 1 577EE4A7
P 9500 6050
F 0 "C150" H 9525 6150 50  0000 L CNN
F 1 "1m 35V" H 9350 5950 50  0000 L CNN
F 2 "Local:CP_Radial_D10.0mm_P5.00mm" H 9538 5900 50  0001 C CNN
F 3 "" H 9500 6050 50  0000 C CNN
	1    9500 6050
	1    0    0    -1  
$EndComp
Wire Wire Line
	9500 2100 9700 2100
Wire Wire Line
	9500 5600 9500 5900
$Comp
L GND #PWR010
U 1 1 577EE81C
P 9500 6300
F 0 "#PWR010" H 9500 6050 50  0001 C CNN
F 1 "GND" H 9500 6150 50  0000 C CNN
F 2 "" H 9500 6300 50  0000 C CNN
F 3 "" H 9500 6300 50  0000 C CNN
	1    9500 6300
	1    0    0    -1  
$EndComp
Wire Wire Line
	9500 6300 9500 6200
Wire Wire Line
	9100 1900 9200 1900
$Comp
L GND #PWR011
U 1 1 577EEE08
P 9200 1900
F 0 "#PWR011" H 9200 1650 50  0001 C CNN
F 1 "GND" V 9200 1700 50  0000 C CNN
F 2 "" H 9200 1900 50  0000 C CNN
F 3 "" H 9200 1900 50  0000 C CNN
	1    9200 1900
	0    -1   -1   0   
$EndComp
$Comp
L CP C160
U 1 1 577EF315
P 9600 4950
F 0 "C160" H 9625 5050 50  0000 L CNN
F 1 "470u 25V" H 9400 4850 50  0000 L CNN
F 2 "Local:CP_Radial_D8.0mm_P3.50mm" H 9638 4800 50  0001 C CNN
F 3 "" H 9600 4950 50  0000 C CNN
	1    9600 4950
	1    0    0    -1  
$EndComp
Wire Wire Line
	9600 4550 9600 4800
Wire Wire Line
	9600 5200 9600 5100
Wire Wire Line
	5700 4900 5700 5100
$Comp
L R R142
U 1 1 577EFB71
P 5700 4750
F 0 "R142" V 5780 4750 50  0000 C CNN
F 1 "3K9" V 5700 4750 50  0000 C CNN
F 2 "Local:R_0603" V 5630 4750 50  0001 C CNN
F 3 "" H 5700 4750 50  0000 C CNN
	1    5700 4750
	-1   0    0    1   
$EndComp
Wire Wire Line
	5700 4300 5700 4600
$Comp
L R R143
U 1 1 577F096D
P 5700 5250
F 0 "R143" V 5780 5250 50  0000 C CNN
F 1 "1K" V 5700 5250 50  0000 C CNN
F 2 "Local:R_0603" V 5630 5250 50  0001 C CNN
F 3 "" H 5700 5250 50  0000 C CNN
	1    5700 5250
	-1   0    0    1   
$EndComp
$Comp
L R R144
U 1 1 577F09F0
P 5950 5500
F 0 "R144" V 6030 5500 50  0000 C CNN
F 1 "4K7" V 5950 5500 50  0000 C CNN
F 2 "Local:R_0603" V 5880 5500 50  0001 C CNN
F 3 "" H 5950 5500 50  0000 C CNN
	1    5950 5500
	0    1    -1   0   
$EndComp
$Comp
L TL431 U141
U 1 1 577F0B7A
P 5700 6000
F 0 "U141" H 5550 6050 50  0000 C CNN
F 1 "TL431" V 5800 6000 50  0000 C CNN
F 2 "Local:SOT-23" V 5700 6000 60  0001 C CNN
F 3 "" V 5700 6000 60  0000 C CNN
	1    5700 6000
	-1   0    0    -1  
$EndComp
Wire Wire Line
	5700 6200 5700 6300
$Comp
L GND #PWR012
U 1 1 577F0D52
P 5700 6300
F 0 "#PWR012" H 5700 6050 50  0001 C CNN
F 1 "GND" H 5700 6150 50  0000 C CNN
F 2 "" H 5700 6300 50  0000 C CNN
F 3 "" H 5700 6300 50  0000 C CNN
	1    5700 6300
	1    0    0    -1  
$EndComp
Wire Wire Line
	5500 5500 5800 5500
Wire Wire Line
	5700 5400 5700 5800
Connection ~ 5700 5500
$Comp
L C C140
U 1 1 577F124C
P 6200 5750
F 0 "C140" H 6150 5650 50  0000 R CNN
F 1 "22n" H 6150 5850 50  0000 R CNN
F 2 "Local:C_0603" H 6238 5600 50  0001 C CNN
F 3 "" H 6200 5750 50  0000 C CNN
	1    6200 5750
	1    0    0    1   
$EndComp
Wire Wire Line
	6200 5500 6100 5500
Wire Wire Line
	6600 5700 6600 5900
$Comp
L R R147
U 1 1 577F1609
P 6600 6050
F 0 "R147" V 6680 6050 50  0000 C CNN
F 1 "6K8" V 6600 6050 50  0000 C CNN
F 2 "Local:R_0603" V 6530 6050 50  0001 C CNN
F 3 "" H 6600 6050 50  0000 C CNN
	1    6600 6050
	-1   0    0    1   
$EndComp
Wire Wire Line
	6600 6200 6600 6300
$Comp
L GND #PWR013
U 1 1 577F171E
P 6600 6300
F 0 "#PWR013" H 6600 6050 50  0001 C CNN
F 1 "GND" H 6600 6150 50  0000 C CNN
F 2 "" H 6600 6300 50  0000 C CNN
F 3 "" H 6600 6300 50  0000 C CNN
	1    6600 6300
	1    0    0    -1  
$EndComp
$Comp
L R R146
U 1 1 577F1A5E
P 6600 5550
F 0 "R146" V 6680 5550 50  0000 C CNN
F 1 "12K" V 6600 5550 50  0000 C CNN
F 2 "Local:R_0603" V 6530 5550 50  0001 C CNN
F 3 "" H 6600 5550 50  0000 C CNN
	1    6600 5550
	-1   0    0    1   
$EndComp
$Comp
L VPP #PWR014
U 1 1 577F254E
P 3000 6300
F 0 "#PWR014" H 3000 6150 50  0001 C CNN
F 1 "VPP" H 3000 6450 50  0000 C CNN
F 2 "" H 3000 6300 50  0000 C CNN
F 3 "" H 3000 6300 50  0000 C CNN
	1    3000 6300
	1    0    0    -1  
$EndComp
Wire Wire Line
	9900 5600 9900 5900
$Comp
L GND #PWR015
U 1 1 577F35E2
P 9900 6300
F 0 "#PWR015" H 9900 6050 50  0001 C CNN
F 1 "GND" H 9900 6150 50  0000 C CNN
F 2 "" H 9900 6300 50  0000 C CNN
F 3 "" H 9900 6300 50  0000 C CNN
	1    9900 6300
	1    0    0    -1  
$EndComp
Wire Wire Line
	9900 6300 9900 6200
$Comp
L C C161
U 1 1 577F3944
P 10000 4950
F 0 "C161" H 10025 5050 50  0000 L CNN
F 1 "100n" H 10025 4850 50  0000 L CNN
F 2 "Local:C_0603" H 10038 4800 50  0001 C CNN
F 3 "" H 10000 4950 50  0000 C CNN
	1    10000 4950
	1    0    0    -1  
$EndComp
Wire Wire Line
	10000 5200 10000 5100
Wire Wire Line
	10000 4550 10000 4800
$Comp
L VPP #PWR016
U 1 1 577F3D06
P 3900 6800
F 0 "#PWR016" H 3900 6650 50  0001 C CNN
F 1 "VPP" H 3900 6950 50  0000 C CNN
F 2 "" H 3900 6800 50  0000 C CNN
F 3 "" H 3900 6800 50  0000 C CNN
	1    3900 6800
	1    0    0    -1  
$EndComp
$Comp
L C C102
U 1 1 577F3F51
P 3900 7050
F 0 "C102" H 3925 7150 50  0000 L CNN
F 1 "100n 400V" H 3700 6950 50  0000 L CNN
F 2 "Local:C_Disc_D9.0mm_W5.0mm_P7.50mm" H 3938 6900 50  0001 C CNN
F 3 "" H 3900 7050 50  0000 C CNN
	1    3900 7050
	-1   0    0    -1  
$EndComp
$Comp
L CP C104
U 1 1 577F40EB
P 3000 7050
F 0 "C104" H 3025 7150 50  0000 L CNN
F 1 "470uF 250V" H 2750 6950 50  0000 L CNN
F 2 "Local:CP_Radial_D22.0mm_P10.00mm_SnapIn" H 3038 6900 50  0001 C CNN
F 3 "" H 3000 7050 50  0000 C CNN
	1    3000 7050
	1    0    0    -1  
$EndComp
$Comp
L GNDPWR #PWR017
U 1 1 577F4439
P 3000 7300
F 0 "#PWR017" H 3000 7100 50  0001 C CNN
F 1 "GNDPWR" H 3000 7170 50  0000 C CNN
F 2 "" H 3000 7250 50  0000 C CNN
F 3 "" H 3000 7250 50  0000 C CNN
	1    3000 7300
	1    0    0    -1  
$EndComp
$Comp
L GNDPWR #PWR018
U 1 1 577F44B6
P 3900 7300
F 0 "#PWR018" H 3900 7100 50  0001 C CNN
F 1 "GNDPWR" H 3900 7170 50  0000 C CNN
F 2 "" H 3900 7250 50  0000 C CNN
F 3 "" H 3900 7250 50  0000 C CNN
	1    3900 7300
	1    0    0    -1  
$EndComp
Wire Wire Line
	3000 7200 3000 7300
Wire Wire Line
	3900 7200 3900 7300
Wire Wire Line
	3900 6900 3900 6800
Wire Wire Line
	3000 6400 3000 6300
Wire Wire Line
	3000 3400 2700 3400
$Comp
L ZENER D120
U 1 1 58B3E664
P 7750 1600
F 0 "D120" H 7750 1700 50  0000 C CNN
F 1 "P6KE200A" H 7750 1500 50  0000 C CNN
F 2 "Local:D_DO-15_P2.54mm_Vertical_AnodeUp" H 7750 1600 50  0001 C CNN
F 3 "" H 7750 1600 50  0000 C CNN
	1    7750 1600
	1    0    0    -1  
$EndComp
Text Label 2100 3000 2    60   ~ 0
VFB
Text Label 4500 4800 3    60   ~ 0
VFB
Text Label 4700 4950 3    60   ~ 0
VREF
Wire Wire Line
	5900 6000 6400 6000
Wire Wire Line
	6200 6000 6200 5900
Wire Wire Line
	6400 6000 6400 5800
Wire Wire Line
	6400 5800 6600 5800
Connection ~ 6200 6000
Wire Wire Line
	6200 5500 6200 5600
Connection ~ 6600 5800
Connection ~ 5700 5000
Wire Wire Line
	4700 5200 4800 5200
Text Notes 6800 6250 1    60   ~ 0
file: regulator.max
$Comp
L R R145
U 1 1 58B46431
P 6600 5150
F 0 "R145" V 6680 5150 50  0000 C CNN
F 1 "56K" V 6600 5150 50  0000 C CNN
F 2 "Local:R_0603" V 6530 5150 50  0001 C CNN
F 3 "" H 6600 5150 50  0000 C CNN
	1    6600 5150
	-1   0    0    1   
$EndComp
Wire Wire Line
	6600 5300 6600 5400
Wire Wire Line
	6600 4650 6600 5000
Text Label 6600 4650 3    60   ~ 0
VOUT
Text Notes 6700 5250 0    60   ~ 0
VOUT~~27.5V
Text Label 2700 2400 0    60   ~ 0
VREF
Wire Wire Line
	3000 2400 2700 2400
Text Label 2700 3600 0    60   ~ 0
RTCT
Text Label 1700 4100 2    60   ~ 0
RTCT
Wire Wire Line
	1700 4100 1400 4100
Connection ~ 1400 4100
Wire Wire Line
	1400 3700 1400 3600
Wire Wire Line
	1400 3600 1600 3600
Text Label 1600 3600 2    60   ~ 0
VREF
Text Label 2700 3400 0    60   ~ 0
ISENS
Text Notes 1150 4550 1    60   ~ 0
file: uc384x.max
Text Notes 6400 6250 0    60   ~ 0
R[L]
Text Notes 6350 5400 0    60   ~ 0
R[H]
Text Notes 5800 5300 0    60   ~ 0
R[BIAS]
Text Notes 5800 4800 0    60   ~ 0
R[LED]
Wire Wire Line
	5400 5200 5500 5200
Wire Wire Line
	5500 5200 5500 5000
Wire Wire Line
	5500 5000 5700 5000
Wire Wire Line
	5500 5500 5500 5400
Wire Wire Line
	5500 5400 5400 5400
Text Notes 5450 6350 1    60   ~ 0
file: feedback.max
Text Notes 6200 5900 0    60   ~ 0
C[Z]
Text Label 2400 4100 2    60   ~ 0
VREF
Wire Wire Line
	2400 4100 2200 4100
Wire Wire Line
	2200 4100 2200 4200
Text Label 2700 3000 0    60   ~ 0
VFB
Wire Wire Line
	3000 3000 2700 3000
Wire Wire Line
	3000 3200 2700 3200
Text Label 2700 3200 0    60   ~ 0
COMP
Text Label 2100 2500 2    60   ~ 0
COMP
$Comp
L R R141
U 1 1 58B5162C
P 4500 5650
F 0 "R141" V 4580 5650 50  0000 C CNN
F 1 "10K" V 4500 5650 50  0000 C CNN
F 2 "Local:R_0603" V 4430 5650 50  0001 C CNN
F 3 "" H 4500 5650 50  0000 C CNN
	1    4500 5650
	-1   0    0    -1  
$EndComp
Wire Wire Line
	4500 5300 4500 5500
Wire Wire Line
	4500 5400 4800 5400
Connection ~ 4500 5400
Wire Wire Line
	4700 5200 4700 4950
Wire Wire Line
	4500 4800 4500 5000
Connection ~ 8500 3600
Text Label 8800 3600 2    60   ~ 0
ISENS
$Comp
L R R121
U 1 1 58B552ED
P 7600 3850
F 0 "R121" V 7680 3850 50  0000 C CNN
F 1 "10K" V 7600 3850 50  0000 C CNN
F 2 "Local:R_0603" V 7530 3850 50  0001 C CNN
F 3 "" H 7600 3850 50  0000 C CNN
	1    7600 3850
	-1   0    0    -1  
$EndComp
Wire Wire Line
	7600 4000 7600 4100
$Comp
L GNDPWR #PWR019
U 1 1 58B553A0
P 7600 4100
F 0 "#PWR019" H 7600 3900 50  0001 C CNN
F 1 "GNDPWR" H 7600 3970 50  0000 C CNN
F 2 "" H 7600 4050 50  0000 C CNN
F 3 "" H 7600 4050 50  0000 C CNN
	1    7600 4100
	1    0    0    -1  
$EndComp
$Comp
L ZENER D122
U 1 1 58B559CB
P 7200 3850
F 0 "D122" H 7200 3950 50  0000 C CNN
F 1 "18V" H 7200 3750 50  0000 C CNN
F 2 "Local:D_MiniMELF_Standard" H 7200 3850 50  0001 C CNN
F 3 "" H 7200 3850 50  0000 C CNN
	1    7200 3850
	0    -1   1    0   
$EndComp
Wire Wire Line
	7200 4050 7200 4100
$Comp
L GNDPWR #PWR020
U 1 1 58B55BB5
P 7200 4100
F 0 "#PWR020" H 7200 3900 50  0001 C CNN
F 1 "GNDPWR" H 7200 3970 50  0000 C CNN
F 2 "" H 7200 4050 50  0000 C CNN
F 3 "" H 7200 4050 50  0000 C CNN
	1    7200 4100
	1    0    0    -1  
$EndComp
Wire Wire Line
	7200 3650 7200 3600
Wire Wire Line
	7200 3600 7600 3600
Connection ~ 7600 3600
$Comp
L C C110
U 1 1 58B41264
P 6700 2650
F 0 "C110" H 6725 2750 50  0000 L CNN
F 1 "100n" H 6725 2550 50  0000 L CNN
F 2 "Local:C_0805" H 6738 2500 50  0001 C CNN
F 3 "" H 6700 2650 50  0000 C CNN
	1    6700 2650
	-1   0    0    -1  
$EndComp
Wire Wire Line
	6200 3200 6400 3200
Wire Wire Line
	6200 2400 6400 2400
Text Label 6400 2400 2    60   ~ 0
VCC
Text Label 6400 3200 2    60   ~ 0
GATE
Text Label 7000 3200 0    60   ~ 0
GATE
Text Label 6600 2400 0    60   ~ 0
VCC
Wire Wire Line
	6700 2400 6700 2500
Connection ~ 6700 2400
Wire Wire Line
	6700 2800 6700 2900
$Comp
L GNDPWR #PWR021
U 1 1 58B42D5B
P 6700 2900
F 0 "#PWR021" H 6700 2700 50  0001 C CNN
F 1 "GNDPWR" H 6700 2770 50  0000 C CNN
F 2 "" H 6700 2850 50  0000 C CNN
F 3 "" H 6700 2850 50  0000 C CNN
	1    6700 2900
	1    0    0    -1  
$EndComp
Text Label 5700 4300 3    60   ~ 0
VOUT
Text Label 9700 2100 2    60   ~ 0
VOUT
Text Label 9500 5600 3    60   ~ 0
VOUT
Text Label 9900 5600 3    60   ~ 0
VOUT
Text Label 9600 4550 3    60   ~ 0
EOUT
Text Label 9600 4550 3    60   ~ 0
EOUT
Text Label 10000 4550 3    60   ~ 0
+3V3
$Comp
L GND #PWR022
U 1 1 58B461E9
P 9200 2400
F 0 "#PWR022" H 9200 2150 50  0001 C CNN
F 1 "GND" V 9200 2200 50  0000 C CNN
F 2 "" H 9200 2400 50  0000 C CNN
F 3 "" H 9200 2400 50  0000 C CNN
	1    9200 2400
	0    -1   -1   0   
$EndComp
$Comp
L GND #PWR023
U 1 1 58B4629A
P 9600 5200
F 0 "#PWR023" H 9600 4950 50  0001 C CNN
F 1 "GND" H 9600 5050 50  0000 C CNN
F 2 "" H 9600 5200 50  0000 C CNN
F 3 "" H 9600 5200 50  0000 C CNN
	1    9600 5200
	1    0    0    -1  
$EndComp
$Comp
L GND #PWR024
U 1 1 58B46327
P 10000 5200
F 0 "#PWR024" H 10000 4950 50  0001 C CNN
F 1 "GND" H 10000 5050 50  0000 C CNN
F 2 "" H 10000 5200 50  0000 C CNN
F 3 "" H 10000 5200 50  0000 C CNN
	1    10000 5200
	1    0    0    -1  
$EndComp
$Comp
L CP C151
U 1 1 58B4885F
P 9900 6050
F 0 "C151" H 9925 6150 50  0000 L CNN
F 1 "2u2 50V" H 9750 5950 50  0000 L CNN
F 2 "Local:CP_Radial_D4.0mm_P2.00mm" H 9938 5900 50  0001 C CNN
F 3 "" H 9900 6050 50  0000 C CNN
	1    9900 6050
	1    0    0    -1  
$EndComp
$Comp
L C C101
U 1 1 58B48E2A
P 7500 4950
F 0 "C101" H 7525 5050 50  0000 L CNN
F 1 "2n2 400V" H 7350 4850 50  0000 L CNN
F 2 "Local:C_Disc_D9.0mm_W5.0mm_P7.50mm" H 7538 4800 50  0001 C CNN
F 3 "" H 7500 4950 50  0000 C CNN
	1    7500 4950
	1    0    0    -1  
$EndComp
Wire Wire Line
	7500 5100 7500 5200
$Comp
L GNDPWR #PWR025
U 1 1 58B48FDF
P 7500 5200
F 0 "#PWR025" H 7500 5000 50  0001 C CNN
F 1 "GNDPWR" H 7500 5070 50  0000 C CNN
F 2 "" H 7500 5150 50  0000 C CNN
F 3 "" H 7500 5150 50  0000 C CNN
	1    7500 5200
	1    0    0    -1  
$EndComp
Wire Wire Line
	7500 4800 7500 4700
Wire Wire Line
	7500 4700 7900 4700
Wire Wire Line
	7900 4700 7900 5200
$Comp
L GND #PWR026
U 1 1 58B492A4
P 7900 5200
F 0 "#PWR026" H 7900 4950 50  0001 C CNN
F 1 "GND" H 7900 5050 50  0000 C CNN
F 2 "" H 7900 5200 50  0000 C CNN
F 3 "" H 7900 5200 50  0000 C CNN
	1    7900 5200
	1    0    0    -1  
$EndComp
$Comp
L CP C103
U 1 1 58B4608A
P 3000 6550
F 0 "C103" H 3025 6650 50  0000 L CNN
F 1 "470uF 250V" H 2750 6450 50  0000 L CNN
F 2 "Local:CP_Radial_D22.0mm_P10.00mm_SnapIn" H 3038 6400 50  0001 C CNN
F 3 "" H 3000 6550 50  0000 C CNN
	1    3000 6550
	1    0    0    -1  
$EndComp
Wire Wire Line
	3000 6700 3000 6900
Wire Wire Line
	3000 6800 3600 6800
Wire Wire Line
	3400 6700 3400 6900
Connection ~ 3000 6800
Connection ~ 3400 6800
$Comp
L R R103
U 1 1 58B465AA
P 3400 7050
F 0 "R103" V 3480 7050 50  0000 C CNN
F 1 "330K" V 3400 7050 50  0000 C CNN
F 2 "Local:R_1206" V 3330 7050 50  0001 C CNN
F 3 "" H 3400 7050 50  0000 C CNN
	1    3400 7050
	-1   0    0    -1  
$EndComp
$Comp
L R R102
U 1 1 58B4694C
P 3400 6550
F 0 "R102" V 3480 6550 50  0000 C CNN
F 1 "330K" V 3400 6550 50  0000 C CNN
F 2 "Local:R_1206" V 3330 6550 50  0001 C CNN
F 3 "" H 3400 6550 50  0000 C CNN
	1    3400 6550
	-1   0    0    -1  
$EndComp
Wire Wire Line
	3400 6400 3400 6300
Wire Wire Line
	3400 7200 3400 7300
$Comp
L GNDPWR #PWR027
U 1 1 58B46FE8
P 3400 7300
F 0 "#PWR027" H 3400 7100 50  0001 C CNN
F 1 "GNDPWR" H 3400 7170 50  0000 C CNN
F 2 "" H 3400 7250 50  0000 C CNN
F 3 "" H 3400 7250 50  0000 C CNN
	1    3400 7300
	1    0    0    -1  
$EndComp
$Comp
L VPP #PWR028
U 1 1 58B4707A
P 3400 6300
F 0 "#PWR028" H 3400 6150 50  0001 C CNN
F 1 "VPP" H 3400 6450 50  0000 C CNN
F 2 "" H 3400 6300 50  0000 C CNN
F 3 "" H 3400 6300 50  0000 C CNN
	1    3400 6300
	1    0    0    -1  
$EndComp
$Comp
L CONN_01X02 P100
U 1 1 58B4878E
P 900 6750
F 0 "P100" H 900 6900 50  0000 C CNN
F 1 "ACIN" V 1000 6750 50  0000 C CNN
F 2 "Local:2PIN_HEAD" H 900 6750 50  0001 C CNN
F 3 "" H 900 6750 50  0000 C CNN
	1    900  6750
	-1   0    0    1   
$EndComp
$Comp
L CONN_01X02 P150
U 1 1 58B494ED
P 10700 6150
F 0 "P150" H 10700 6300 50  0000 C CNN
F 1 "POWER" V 10800 6150 50  0000 C CNN
F 2 "Local:2PIN_HEAD" H 10700 6150 50  0001 C CNN
F 3 "" H 10700 6150 50  0000 C CNN
	1    10700 6150
	1    0    0    -1  
$EndComp
$Comp
L GND #PWR029
U 1 1 58B499ED
P 10400 6300
F 0 "#PWR029" H 10400 6050 50  0001 C CNN
F 1 "GND" H 10400 6150 50  0000 C CNN
F 2 "" H 10400 6300 50  0000 C CNN
F 3 "" H 10400 6300 50  0000 C CNN
	1    10400 6300
	1    0    0    -1  
$EndComp
Wire Wire Line
	10400 6300 10400 6200
Wire Wire Line
	10400 6200 10500 6200
Wire Wire Line
	10400 6100 10500 6100
Wire Wire Line
	10400 5600 10400 6100
Text Label 10400 5600 3    60   ~ 0
VOUT
$Comp
L CONN_01X02 P160
U 1 1 58B49ECE
P 10700 3250
F 0 "P160" H 10700 3400 50  0000 C CNN
F 1 "LOGIC" V 10800 3250 50  0000 C CNN
F 2 "Local:Pin_Header_Straight_1x02_Pitch2.54mm" H 10700 3250 50  0001 C CNN
F 3 "" H 10700 3250 50  0000 C CNN
	1    10700 3250
	1    0    0    1   
$EndComp
Wire Wire Line
	10500 3300 10400 3300
Wire Wire Line
	10400 3300 10400 3400
$Comp
L GND #PWR030
U 1 1 58B4A78D
P 10400 3400
F 0 "#PWR030" H 10400 3150 50  0001 C CNN
F 1 "GND" H 10400 3250 50  0000 C CNN
F 2 "" H 10400 3400 50  0000 C CNN
F 3 "" H 10400 3400 50  0000 C CNN
	1    10400 3400
	1    0    0    -1  
$EndComp
Wire Wire Line
	10500 3200 10400 3200
Wire Wire Line
	10400 3200 10400 2900
Text Label 10400 2900 3    60   ~ 0
+3V3
$Comp
L LD1117S33CTR U160
U 1 1 58B4AF7F
P 9600 3250
F 0 "U160" H 9600 3550 50  0000 C CNN
F 1 "LD1117S33CTR" H 9600 3450 50  0000 C CNN
F 2 "Local:SOT-223" H 9600 3350 50  0001 C CNN
F 3 "" H 9600 3250 50  0000 C CNN
	1    9600 3250
	1    0    0    -1  
$EndComp
$Comp
L GND #PWR031
U 1 1 58B4B146
P 9600 3600
F 0 "#PWR031" H 9600 3350 50  0001 C CNN
F 1 "GND" H 9600 3450 50  0000 C CNN
F 2 "" H 9600 3600 50  0000 C CNN
F 3 "" H 9600 3600 50  0000 C CNN
	1    9600 3600
	1    0    0    -1  
$EndComp
Wire Wire Line
	9600 3500 9600 3600
Wire Wire Line
	10100 3200 10000 3200
Wire Wire Line
	10100 2900 10100 3200
Text Label 10100 2900 3    60   ~ 0
+3V3
Wire Wire Line
	9200 3200 9100 3200
Wire Wire Line
	9100 3200 9100 2900
Text Label 9100 2900 3    60   ~ 0
EOUT
$Comp
L CP C162
U 1 1 58B4BB38
P 10400 4950
F 0 "C162" H 10425 5050 50  0000 L CNN
F 1 "47u 25V" H 10250 4850 50  0000 L CNN
F 2 "Local:CP_Radial_D5.0mm_P2.00mm" H 10438 4800 50  0001 C CNN
F 3 "" H 10400 4950 50  0000 C CNN
	1    10400 4950
	1    0    0    -1  
$EndComp
Wire Wire Line
	10400 4550 10400 4800
Text Label 10400 4550 3    60   ~ 0
+3V3
Wire Wire Line
	10400 5200 10400 5100
$Comp
L GND #PWR032
U 1 1 58B4C1FF
P 10400 5200
F 0 "#PWR032" H 10400 4950 50  0001 C CNN
F 1 "GND" H 10400 5050 50  0000 C CNN
F 2 "" H 10400 5200 50  0000 C CNN
F 3 "" H 10400 5200 50  0000 C CNN
	1    10400 5200
	1    0    0    -1  
$EndComp
$Comp
L THERMISTOR TH100
U 1 1 58B41B39
P 1550 6300
F 0 "TH100" V 1650 6350 50  0000 C CNN
F 1 "10R" V 1450 6300 50  0000 C BNN
F 2 "Local:NTC_11x5.5_f7.5" H 1550 6300 50  0001 C CNN
F 3 "" H 1550 6300 50  0000 C CNN
	1    1550 6300
	0    -1   -1   0   
$EndComp
Wire Wire Line
	1100 6700 1200 6700
Wire Wire Line
	1100 6800 1200 6800
Wire Wire Line
	1300 6300 1200 6300
Wire Wire Line
	1200 6300 1200 6700
$Comp
L GNDPWR #PWR033
U 1 1 58B43EAF
P 1400 6900
F 0 "#PWR033" H 1400 6700 50  0001 C CNN
F 1 "GNDPWR" H 1400 6770 50  0000 C CNN
F 2 "" H 1400 6850 50  0000 C CNN
F 3 "" H 1400 6850 50  0000 C CNN
	1    1400 6900
	1    0    0    -1  
$EndComp
$Comp
L FUSE F100
U 1 1 58B4432C
P 1550 7300
F 0 "F100" H 1650 7350 50  0000 C CNN
F 1 "3A" H 1450 7250 50  0000 C CNN
F 2 "Local:FUSE_3A" H 1550 7300 50  0001 C CNN
F 3 "" H 1550 7300 50  0000 C CNN
	1    1550 7300
	1    0    0    -1  
$EndComp
Wire Wire Line
	1200 6800 1200 7300
Wire Wire Line
	1200 7300 1300 7300
$Comp
L GNDPWR #PWR034
U 1 1 58B415E8
P 3300 4900
F 0 "#PWR034" H 3300 4700 50  0001 C CNN
F 1 "GNDPWR" H 3300 4770 50  0000 C CNN
F 2 "" H 3300 4850 50  0000 C CNN
F 3 "" H 3300 4850 50  0000 C CNN
	1    3300 4900
	1    0    0    -1  
$EndComp
Wire Wire Line
	3300 4900 3300 4800
$Comp
L PWR_FLAG #FLG035
U 1 1 58B419E4
P 3300 4800
F 0 "#FLG035" H 3300 4895 50  0001 C CNN
F 1 "PWR_FLAG" H 3300 4980 50  0000 C CNN
F 2 "" H 3300 4800 50  0000 C CNN
F 3 "" H 3300 4800 50  0000 C CNN
	1    3300 4800
	1    0    0    -1  
$EndComp
Text Label 3800 5000 1    60   ~ 0
VCC
Wire Wire Line
	3800 5000 3800 4800
$Comp
L PWR_FLAG #FLG036
U 1 1 58B41FD0
P 3800 4800
F 0 "#FLG036" H 3800 4895 50  0001 C CNN
F 1 "PWR_FLAG" H 3800 4980 50  0000 C CNN
F 2 "" H 3800 4800 50  0000 C CNN
F 3 "" H 3800 4800 50  0000 C CNN
	1    3800 4800
	1    0    0    -1  
$EndComp
$Comp
L GND #PWR037
U 1 1 58B425FE
P 10400 4200
F 0 "#PWR037" H 10400 3950 50  0001 C CNN
F 1 "GND" H 10400 4050 50  0000 C CNN
F 2 "" H 10400 4200 50  0000 C CNN
F 3 "" H 10400 4200 50  0000 C CNN
	1    10400 4200
	1    0    0    -1  
$EndComp
$Comp
L PWR_FLAG #FLG038
U 1 1 58B42793
P 9950 4100
F 0 "#FLG038" H 9950 4195 50  0001 C CNN
F 1 "PWR_FLAG" H 9950 4280 50  0000 C CNN
F 2 "" H 9950 4100 50  0000 C CNN
F 3 "" H 9950 4100 50  0000 C CNN
	1    9950 4100
	1    0    0    -1  
$EndComp
Text Label 9950 4300 1    60   ~ 0
EOUT
$Comp
L PWR_FLAG #FLG039
U 1 1 58B42A97
P 10400 4100
F 0 "#FLG039" H 10400 4195 50  0001 C CNN
F 1 "PWR_FLAG" H 10400 4280 50  0000 C CNN
F 2 "" H 10400 4100 50  0000 C CNN
F 3 "" H 10400 4100 50  0000 C CNN
	1    10400 4100
	1    0    0    -1  
$EndComp
Wire Wire Line
	9950 4300 9950 4100
Wire Wire Line
	10400 4200 10400 4100
$Comp
L VPP #PWR040
U 1 1 58B42FB9
P 3300 5500
F 0 "#PWR040" H 3300 5350 50  0001 C CNN
F 1 "VPP" H 3300 5650 50  0000 C CNN
F 2 "" H 3300 5500 50  0000 C CNN
F 3 "" H 3300 5500 50  0000 C CNN
	1    3300 5500
	1    0    0    -1  
$EndComp
$Comp
L PWR_FLAG #FLG041
U 1 1 58B43554
P 3700 5500
F 0 "#FLG041" H 3700 5595 50  0001 C CNN
F 1 "PWR_FLAG" H 3700 5680 50  0000 C CNN
F 2 "" H 3700 5500 50  0000 C CNN
F 3 "" H 3700 5500 50  0000 C CNN
	1    3700 5500
	1    0    0    -1  
$EndComp
Wire Wire Line
	3300 5500 3300 5600
Wire Wire Line
	3300 5600 3700 5600
Wire Wire Line
	3700 5600 3700 5500
Text Label 9450 4300 1    60   ~ 0
VOUT
$Comp
L PWR_FLAG #FLG042
U 1 1 58B4416E
P 9450 4100
F 0 "#FLG042" H 9450 4195 50  0001 C CNN
F 1 "PWR_FLAG" H 9450 4280 50  0000 C CNN
F 2 "" H 9450 4100 50  0000 C CNN
F 3 "" H 9450 4100 50  0000 C CNN
	1    9450 4100
	1    0    0    -1  
$EndComp
Wire Wire Line
	9450 4300 9450 4100
Wire Wire Line
	9200 1600 9100 1600
Text Label 9700 1600 2    60   ~ 0
EOUT
Wire Wire Line
	9700 1600 9500 1600
Text Label 8000 2100 1    60   ~ 0
DRV
Connection ~ 8000 1900
Wire Wire Line
	8000 1900 8000 3000
Text Label 3600 6800 2    60   ~ 0
VHH
Text Label 7100 1800 3    60   ~ 0
VHH
Text Notes 5450 5100 1    60   ~ 0
file: regulator.max
Text Notes 8400 1150 0    60   ~ 0
Primary coil:\n0.4mm 92T 1.2mH\n\nSecondary coils:\n0: 15V 0.3mm 8T\n1: 27V 2x0.7mm 14T\n2: 7V 0.5mm 4T
Text Notes 8300 1750 0    60   ~ 0
PRI
Text Notes 8300 2250 0    60   ~ 0
SEC0
Text Notes 8900 2250 0    60   ~ 0
SEC1
Text Notes 8900 1750 0    60   ~ 0
SEC2
$Comp
L DB D100
U 1 1 58B56F5D
P 1900 6800
F 0 "D100" H 1900 6900 50  0000 C CNN
F 1 "DB107S" H 1900 6800 50  0000 C CNN
F 2 "Local:DB4S" H 1900 6800 50  0001 C CNN
F 3 "" H 1900 6800 50  0000 C CNN
	1    1900 6800
	1    0    0    -1  
$EndComp
Text Label 2500 6800 2    60   ~ 0
VPP
Wire Wire Line
	2500 6800 2300 6800
Wire Wire Line
	1500 6800 1400 6800
Wire Wire Line
	1400 6800 1400 6900
Wire Wire Line
	1800 6300 1900 6300
Wire Wire Line
	1900 6300 1900 6400
Wire Wire Line
	1900 7200 1900 7400
Wire Wire Line
	1900 7300 1800 7300
$Comp
L PWR_FLAG #FLG043
U 1 1 58BA7766
P 1900 7400
F 0 "#FLG043" H 1900 7495 50  0001 C CNN
F 1 "PWR_FLAG" H 1900 7580 50  0000 C CNN
F 2 "" H 1900 7400 50  0000 C CNN
F 3 "" H 1900 7400 50  0000 C CNN
	1    1900 7400
	-1   0    0    1   
$EndComp
Connection ~ 1900 7300
Text Notes 10300 1750 0    60   ~ 0
TODO:\n\n3. Add 15V out
$EndSCHEMATC
