(module CP_Radial_D16.0mm_P7.50mm (layer F.Cu) (tedit 5920C255)
  (descr "CP, Radial series, Radial, pin pitch=7.50mm, , diameter=16mm, Electrolytic Capacitor")
  (tags "CP Radial series Radial pin pitch 7.50mm  diameter 16mm Electrolytic Capacitor")
  (fp_text reference REF** (at 3.75 -9.06) (layer F.SilkS)
    (effects (font (size 1 1) (thickness 0.15)))
  )
  (fp_text value CP_Radial_D16.0mm_P7.50mm (at 3.75 9.06) (layer F.Fab)
    (effects (font (size 1 1) (thickness 0.15)))
  )
  (fp_text user %R (at 3.75 0) (layer F.Fab)
    (effects (font (size 1 1) (thickness 0.15)))
  )
  (fp_line (start -3.2 0) (end -1.4 0) (layer F.Fab) (width 0.1))
  (fp_line (start -2.3 -0.9) (end -2.3 0.9) (layer F.Fab) (width 0.1))
  (fp_line (start 3.75 -8.051) (end 3.75 8.051) (layer F.SilkS) (width 0.12))
  (fp_line (start 3.79 -8.05) (end 3.79 8.05) (layer F.SilkS) (width 0.12))
  (fp_line (start 3.83 -8.05) (end 3.83 8.05) (layer F.SilkS) (width 0.12))
  (fp_line (start 3.87 -8.05) (end 3.87 8.05) (layer F.SilkS) (width 0.12))
  (fp_line (start 3.91 -8.049) (end 3.91 8.049) (layer F.SilkS) (width 0.12))
  (fp_line (start 3.95 -8.048) (end 3.95 8.048) (layer F.SilkS) (width 0.12))
  (fp_line (start 3.99 -8.047) (end 3.99 8.047) (layer F.SilkS) (width 0.12))
  (fp_line (start 4.03 -8.046) (end 4.03 8.046) (layer F.SilkS) (width 0.12))
  (fp_line (start 4.07 -8.044) (end 4.07 8.044) (layer F.SilkS) (width 0.12))
  (fp_line (start 4.11 -8.042) (end 4.11 8.042) (layer F.SilkS) (width 0.12))
  (fp_line (start 4.15 -8.041) (end 4.15 8.041) (layer F.SilkS) (width 0.12))
  (fp_line (start 4.19 -8.039) (end 4.19 8.039) (layer F.SilkS) (width 0.12))
  (fp_line (start 4.23 -8.036) (end 4.23 8.036) (layer F.SilkS) (width 0.12))
  (fp_line (start 4.27 -8.034) (end 4.27 8.034) (layer F.SilkS) (width 0.12))
  (fp_line (start 4.31 -8.031) (end 4.31 8.031) (layer F.SilkS) (width 0.12))
  (fp_line (start 4.35 -8.028) (end 4.35 8.028) (layer F.SilkS) (width 0.12))
  (fp_line (start 4.39 -8.025) (end 4.39 8.025) (layer F.SilkS) (width 0.12))
  (fp_line (start 4.43 -8.022) (end 4.43 8.022) (layer F.SilkS) (width 0.12))
  (fp_line (start 4.471 -8.018) (end 4.471 8.018) (layer F.SilkS) (width 0.12))
  (fp_line (start 4.511 -8.015) (end 4.511 8.015) (layer F.SilkS) (width 0.12))
  (fp_line (start 4.551 -8.011) (end 4.551 8.011) (layer F.SilkS) (width 0.12))
  (fp_line (start 4.591 -8.007) (end 4.591 8.007) (layer F.SilkS) (width 0.12))
  (fp_line (start 4.631 -8.002) (end 4.631 8.002) (layer F.SilkS) (width 0.12))
  (fp_line (start 4.671 -7.998) (end 4.671 7.998) (layer F.SilkS) (width 0.12))
  (fp_line (start 4.711 -7.993) (end 4.711 7.993) (layer F.SilkS) (width 0.12))
  (fp_line (start 4.751 -7.988) (end 4.751 7.988) (layer F.SilkS) (width 0.12))
  (fp_line (start 4.791 -7.983) (end 4.791 7.983) (layer F.SilkS) (width 0.12))
  (fp_line (start 4.831 -7.978) (end 4.831 7.978) (layer F.SilkS) (width 0.12))
  (fp_line (start 4.871 -7.973) (end 4.871 7.973) (layer F.SilkS) (width 0.12))
  (fp_line (start 4.911 -7.967) (end 4.911 7.967) (layer F.SilkS) (width 0.12))
  (fp_line (start 4.951 -7.961) (end 4.951 7.961) (layer F.SilkS) (width 0.12))
  (fp_line (start 4.991 -7.955) (end 4.991 7.955) (layer F.SilkS) (width 0.12))
  (fp_line (start 5.031 -7.949) (end 5.031 7.949) (layer F.SilkS) (width 0.12))
  (fp_line (start 5.071 -7.942) (end 5.071 7.942) (layer F.SilkS) (width 0.12))
  (fp_line (start 5.111 -7.935) (end 5.111 7.935) (layer F.SilkS) (width 0.12))
  (fp_line (start 5.151 -7.928) (end 5.151 7.928) (layer F.SilkS) (width 0.12))
  (fp_line (start 5.191 -7.921) (end 5.191 7.921) (layer F.SilkS) (width 0.12))
  (fp_line (start 5.231 -7.914) (end 5.231 7.914) (layer F.SilkS) (width 0.12))
  (fp_line (start 5.271 -7.906) (end 5.271 7.906) (layer F.SilkS) (width 0.12))
  (fp_line (start 5.311 -7.899) (end 5.311 7.899) (layer F.SilkS) (width 0.12))
  (fp_line (start 5.351 -7.891) (end 5.351 7.891) (layer F.SilkS) (width 0.12))
  (fp_line (start 5.391 -7.883) (end 5.391 7.883) (layer F.SilkS) (width 0.12))
  (fp_line (start 5.431 -7.874) (end 5.431 7.874) (layer F.SilkS) (width 0.12))
  (fp_line (start 5.471 -7.866) (end 5.471 7.866) (layer F.SilkS) (width 0.12))
  (fp_line (start 5.511 -7.857) (end 5.511 7.857) (layer F.SilkS) (width 0.12))
  (fp_line (start 5.551 -7.848) (end 5.551 7.848) (layer F.SilkS) (width 0.12))
  (fp_line (start 5.591 -7.838) (end 5.591 7.838) (layer F.SilkS) (width 0.12))
  (fp_line (start 5.631 -7.829) (end 5.631 7.829) (layer F.SilkS) (width 0.12))
  (fp_line (start 5.671 -7.819) (end 5.671 7.819) (layer F.SilkS) (width 0.12))
  (fp_line (start 5.711 -7.809) (end 5.711 7.809) (layer F.SilkS) (width 0.12))
  (fp_line (start 5.751 -7.799) (end 5.751 7.799) (layer F.SilkS) (width 0.12))
  (fp_line (start 5.791 -7.789) (end 5.791 7.789) (layer F.SilkS) (width 0.12))
  (fp_line (start 5.831 -7.779) (end 5.831 7.779) (layer F.SilkS) (width 0.12))
  (fp_line (start 5.871 -7.768) (end 5.871 7.768) (layer F.SilkS) (width 0.12))
  (fp_line (start 5.911 -7.757) (end 5.911 7.757) (layer F.SilkS) (width 0.12))
  (fp_line (start 5.951 -7.746) (end 5.951 7.746) (layer F.SilkS) (width 0.12))
  (fp_line (start 5.991 -7.734) (end 5.991 7.734) (layer F.SilkS) (width 0.12))
  (fp_line (start 6.031 -7.723) (end 6.031 7.723) (layer F.SilkS) (width 0.12))
  (fp_line (start 6.071 -7.711) (end 6.071 7.711) (layer F.SilkS) (width 0.12))
  (fp_line (start 6.111 -7.699) (end 6.111 7.699) (layer F.SilkS) (width 0.12))
  (fp_line (start 6.151 -7.686) (end 6.151 -1.38) (layer F.SilkS) (width 0.12))
  (fp_line (start 6.151 1.38) (end 6.151 7.686) (layer F.SilkS) (width 0.12))
  (fp_line (start 6.191 -7.674) (end 6.191 -1.38) (layer F.SilkS) (width 0.12))
  (fp_line (start 6.191 1.38) (end 6.191 7.674) (layer F.SilkS) (width 0.12))
  (fp_line (start 6.231 -7.661) (end 6.231 -1.38) (layer F.SilkS) (width 0.12))
  (fp_line (start 6.231 1.38) (end 6.231 7.661) (layer F.SilkS) (width 0.12))
  (fp_line (start 6.271 -7.648) (end 6.271 -1.38) (layer F.SilkS) (width 0.12))
  (fp_line (start 6.271 1.38) (end 6.271 7.648) (layer F.SilkS) (width 0.12))
  (fp_line (start 6.311 -7.635) (end 6.311 -1.38) (layer F.SilkS) (width 0.12))
  (fp_line (start 6.311 1.38) (end 6.311 7.635) (layer F.SilkS) (width 0.12))
  (fp_line (start 6.351 -7.621) (end 6.351 -1.38) (layer F.SilkS) (width 0.12))
  (fp_line (start 6.351 1.38) (end 6.351 7.621) (layer F.SilkS) (width 0.12))
  (fp_line (start 6.391 -7.608) (end 6.391 -1.38) (layer F.SilkS) (width 0.12))
  (fp_line (start 6.391 1.38) (end 6.391 7.608) (layer F.SilkS) (width 0.12))
  (fp_line (start 6.431 -7.594) (end 6.431 -1.38) (layer F.SilkS) (width 0.12))
  (fp_line (start 6.431 1.38) (end 6.431 7.594) (layer F.SilkS) (width 0.12))
  (fp_line (start 6.471 -7.58) (end 6.471 -1.38) (layer F.SilkS) (width 0.12))
  (fp_line (start 6.471 1.38) (end 6.471 7.58) (layer F.SilkS) (width 0.12))
  (fp_line (start 6.511 -7.565) (end 6.511 -1.38) (layer F.SilkS) (width 0.12))
  (fp_line (start 6.511 1.38) (end 6.511 7.565) (layer F.SilkS) (width 0.12))
  (fp_line (start 6.551 -7.55) (end 6.551 -1.38) (layer F.SilkS) (width 0.12))
  (fp_line (start 6.551 1.38) (end 6.551 7.55) (layer F.SilkS) (width 0.12))
  (fp_line (start 6.591 -7.536) (end 6.591 -1.38) (layer F.SilkS) (width 0.12))
  (fp_line (start 6.591 1.38) (end 6.591 7.536) (layer F.SilkS) (width 0.12))
  (fp_line (start 6.631 -7.521) (end 6.631 -1.38) (layer F.SilkS) (width 0.12))
  (fp_line (start 6.631 1.38) (end 6.631 7.521) (layer F.SilkS) (width 0.12))
  (fp_line (start 6.671 -7.505) (end 6.671 -1.38) (layer F.SilkS) (width 0.12))
  (fp_line (start 6.671 1.38) (end 6.671 7.505) (layer F.SilkS) (width 0.12))
  (fp_line (start 6.711 -7.49) (end 6.711 -1.38) (layer F.SilkS) (width 0.12))
  (fp_line (start 6.711 1.38) (end 6.711 7.49) (layer F.SilkS) (width 0.12))
  (fp_line (start 6.751 -7.474) (end 6.751 -1.38) (layer F.SilkS) (width 0.12))
  (fp_line (start 6.751 1.38) (end 6.751 7.474) (layer F.SilkS) (width 0.12))
  (fp_line (start 6.791 -7.458) (end 6.791 -1.38) (layer F.SilkS) (width 0.12))
  (fp_line (start 6.791 1.38) (end 6.791 7.458) (layer F.SilkS) (width 0.12))
  (fp_line (start 6.831 -7.441) (end 6.831 -1.38) (layer F.SilkS) (width 0.12))
  (fp_line (start 6.831 1.38) (end 6.831 7.441) (layer F.SilkS) (width 0.12))
  (fp_line (start 6.871 -7.425) (end 6.871 -1.38) (layer F.SilkS) (width 0.12))
  (fp_line (start 6.871 1.38) (end 6.871 7.425) (layer F.SilkS) (width 0.12))
  (fp_line (start 6.911 -7.408) (end 6.911 -1.38) (layer F.SilkS) (width 0.12))
  (fp_line (start 6.911 1.38) (end 6.911 7.408) (layer F.SilkS) (width 0.12))
  (fp_line (start 6.951 -7.391) (end 6.951 -1.38) (layer F.SilkS) (width 0.12))
  (fp_line (start 6.951 1.38) (end 6.951 7.391) (layer F.SilkS) (width 0.12))
  (fp_line (start 6.991 -7.373) (end 6.991 -1.38) (layer F.SilkS) (width 0.12))
  (fp_line (start 6.991 1.38) (end 6.991 7.373) (layer F.SilkS) (width 0.12))
  (fp_line (start 7.031 -7.356) (end 7.031 -1.38) (layer F.SilkS) (width 0.12))
  (fp_line (start 7.031 1.38) (end 7.031 7.356) (layer F.SilkS) (width 0.12))
  (fp_line (start 7.071 -7.338) (end 7.071 -1.38) (layer F.SilkS) (width 0.12))
  (fp_line (start 7.071 1.38) (end 7.071 7.338) (layer F.SilkS) (width 0.12))
  (fp_line (start 7.111 -7.32) (end 7.111 -1.38) (layer F.SilkS) (width 0.12))
  (fp_line (start 7.111 1.38) (end 7.111 7.32) (layer F.SilkS) (width 0.12))
  (fp_line (start 7.151 -7.301) (end 7.151 -1.38) (layer F.SilkS) (width 0.12))
  (fp_line (start 7.151 1.38) (end 7.151 7.301) (layer F.SilkS) (width 0.12))
  (fp_line (start 7.191 -7.283) (end 7.191 -1.38) (layer F.SilkS) (width 0.12))
  (fp_line (start 7.191 1.38) (end 7.191 7.283) (layer F.SilkS) (width 0.12))
  (fp_line (start 7.231 -7.264) (end 7.231 -1.38) (layer F.SilkS) (width 0.12))
  (fp_line (start 7.231 1.38) (end 7.231 7.264) (layer F.SilkS) (width 0.12))
  (fp_line (start 7.271 -7.245) (end 7.271 -1.38) (layer F.SilkS) (width 0.12))
  (fp_line (start 7.271 1.38) (end 7.271 7.245) (layer F.SilkS) (width 0.12))
  (fp_line (start 7.311 -7.225) (end 7.311 -1.38) (layer F.SilkS) (width 0.12))
  (fp_line (start 7.311 1.38) (end 7.311 7.225) (layer F.SilkS) (width 0.12))
  (fp_line (start 7.351 -7.205) (end 7.351 -1.38) (layer F.SilkS) (width 0.12))
  (fp_line (start 7.351 1.38) (end 7.351 7.205) (layer F.SilkS) (width 0.12))
  (fp_line (start 7.391 -7.185) (end 7.391 -1.38) (layer F.SilkS) (width 0.12))
  (fp_line (start 7.391 1.38) (end 7.391 7.185) (layer F.SilkS) (width 0.12))
  (fp_line (start 7.431 -7.165) (end 7.431 -1.38) (layer F.SilkS) (width 0.12))
  (fp_line (start 7.431 1.38) (end 7.431 7.165) (layer F.SilkS) (width 0.12))
  (fp_line (start 7.471 -7.144) (end 7.471 -1.38) (layer F.SilkS) (width 0.12))
  (fp_line (start 7.471 1.38) (end 7.471 7.144) (layer F.SilkS) (width 0.12))
  (fp_line (start 7.511 -7.124) (end 7.511 -1.38) (layer F.SilkS) (width 0.12))
  (fp_line (start 7.511 1.38) (end 7.511 7.124) (layer F.SilkS) (width 0.12))
  (fp_line (start 7.551 -7.102) (end 7.551 -1.38) (layer F.SilkS) (width 0.12))
  (fp_line (start 7.551 1.38) (end 7.551 7.102) (layer F.SilkS) (width 0.12))
  (fp_line (start 7.591 -7.081) (end 7.591 -1.38) (layer F.SilkS) (width 0.12))
  (fp_line (start 7.591 1.38) (end 7.591 7.081) (layer F.SilkS) (width 0.12))
  (fp_line (start 7.631 -7.059) (end 7.631 -1.38) (layer F.SilkS) (width 0.12))
  (fp_line (start 7.631 1.38) (end 7.631 7.059) (layer F.SilkS) (width 0.12))
  (fp_line (start 7.671 -7.037) (end 7.671 -1.38) (layer F.SilkS) (width 0.12))
  (fp_line (start 7.671 1.38) (end 7.671 7.037) (layer F.SilkS) (width 0.12))
  (fp_line (start 7.711 -7.015) (end 7.711 -1.38) (layer F.SilkS) (width 0.12))
  (fp_line (start 7.711 1.38) (end 7.711 7.015) (layer F.SilkS) (width 0.12))
  (fp_line (start 7.751 -6.992) (end 7.751 -1.38) (layer F.SilkS) (width 0.12))
  (fp_line (start 7.751 1.38) (end 7.751 6.992) (layer F.SilkS) (width 0.12))
  (fp_line (start 7.791 -6.97) (end 7.791 -1.38) (layer F.SilkS) (width 0.12))
  (fp_line (start 7.791 1.38) (end 7.791 6.97) (layer F.SilkS) (width 0.12))
  (fp_line (start 7.831 -6.946) (end 7.831 -1.38) (layer F.SilkS) (width 0.12))
  (fp_line (start 7.831 1.38) (end 7.831 6.946) (layer F.SilkS) (width 0.12))
  (fp_line (start 7.871 -6.923) (end 7.871 -1.38) (layer F.SilkS) (width 0.12))
  (fp_line (start 7.871 1.38) (end 7.871 6.923) (layer F.SilkS) (width 0.12))
  (fp_line (start 7.911 -6.899) (end 7.911 -1.38) (layer F.SilkS) (width 0.12))
  (fp_line (start 7.911 1.38) (end 7.911 6.899) (layer F.SilkS) (width 0.12))
  (fp_line (start 7.951 -6.875) (end 7.951 -1.38) (layer F.SilkS) (width 0.12))
  (fp_line (start 7.951 1.38) (end 7.951 6.875) (layer F.SilkS) (width 0.12))
  (fp_line (start 7.991 -6.85) (end 7.991 -1.38) (layer F.SilkS) (width 0.12))
  (fp_line (start 7.991 1.38) (end 7.991 6.85) (layer F.SilkS) (width 0.12))
  (fp_line (start 8.031 -6.826) (end 8.031 -1.38) (layer F.SilkS) (width 0.12))
  (fp_line (start 8.031 1.38) (end 8.031 6.826) (layer F.SilkS) (width 0.12))
  (fp_line (start 8.071 -6.801) (end 8.071 -1.38) (layer F.SilkS) (width 0.12))
  (fp_line (start 8.071 1.38) (end 8.071 6.801) (layer F.SilkS) (width 0.12))
  (fp_line (start 8.111 -6.775) (end 8.111 -1.38) (layer F.SilkS) (width 0.12))
  (fp_line (start 8.111 1.38) (end 8.111 6.775) (layer F.SilkS) (width 0.12))
  (fp_line (start 8.151 -6.749) (end 8.151 -1.38) (layer F.SilkS) (width 0.12))
  (fp_line (start 8.151 1.38) (end 8.151 6.749) (layer F.SilkS) (width 0.12))
  (fp_line (start 8.191 -6.723) (end 8.191 -1.38) (layer F.SilkS) (width 0.12))
  (fp_line (start 8.191 1.38) (end 8.191 6.723) (layer F.SilkS) (width 0.12))
  (fp_line (start 8.231 -6.697) (end 8.231 -1.38) (layer F.SilkS) (width 0.12))
  (fp_line (start 8.231 1.38) (end 8.231 6.697) (layer F.SilkS) (width 0.12))
  (fp_line (start 8.271 -6.67) (end 8.271 -1.38) (layer F.SilkS) (width 0.12))
  (fp_line (start 8.271 1.38) (end 8.271 6.67) (layer F.SilkS) (width 0.12))
  (fp_line (start 8.311 -6.643) (end 8.311 -1.38) (layer F.SilkS) (width 0.12))
  (fp_line (start 8.311 1.38) (end 8.311 6.643) (layer F.SilkS) (width 0.12))
  (fp_line (start 8.351 -6.615) (end 8.351 -1.38) (layer F.SilkS) (width 0.12))
  (fp_line (start 8.351 1.38) (end 8.351 6.615) (layer F.SilkS) (width 0.12))
  (fp_line (start 8.391 -6.588) (end 8.391 -1.38) (layer F.SilkS) (width 0.12))
  (fp_line (start 8.391 1.38) (end 8.391 6.588) (layer F.SilkS) (width 0.12))
  (fp_line (start 8.431 -6.559) (end 8.431 -1.38) (layer F.SilkS) (width 0.12))
  (fp_line (start 8.431 1.38) (end 8.431 6.559) (layer F.SilkS) (width 0.12))
  (fp_line (start 8.471 -6.531) (end 8.471 -1.38) (layer F.SilkS) (width 0.12))
  (fp_line (start 8.471 1.38) (end 8.471 6.531) (layer F.SilkS) (width 0.12))
  (fp_line (start 8.511 -6.502) (end 8.511 -1.38) (layer F.SilkS) (width 0.12))
  (fp_line (start 8.511 1.38) (end 8.511 6.502) (layer F.SilkS) (width 0.12))
  (fp_line (start 8.551 -6.473) (end 8.551 -1.38) (layer F.SilkS) (width 0.12))
  (fp_line (start 8.551 1.38) (end 8.551 6.473) (layer F.SilkS) (width 0.12))
  (fp_line (start 8.591 -6.443) (end 8.591 -1.38) (layer F.SilkS) (width 0.12))
  (fp_line (start 8.591 1.38) (end 8.591 6.443) (layer F.SilkS) (width 0.12))
  (fp_line (start 8.631 -6.413) (end 8.631 -1.38) (layer F.SilkS) (width 0.12))
  (fp_line (start 8.631 1.38) (end 8.631 6.413) (layer F.SilkS) (width 0.12))
  (fp_line (start 8.671 -6.382) (end 8.671 -1.38) (layer F.SilkS) (width 0.12))
  (fp_line (start 8.671 1.38) (end 8.671 6.382) (layer F.SilkS) (width 0.12))
  (fp_line (start 8.711 -6.352) (end 8.711 -1.38) (layer F.SilkS) (width 0.12))
  (fp_line (start 8.711 1.38) (end 8.711 6.352) (layer F.SilkS) (width 0.12))
  (fp_line (start 8.751 -6.32) (end 8.751 -1.38) (layer F.SilkS) (width 0.12))
  (fp_line (start 8.751 1.38) (end 8.751 6.32) (layer F.SilkS) (width 0.12))
  (fp_line (start 8.791 -6.289) (end 8.791 -1.38) (layer F.SilkS) (width 0.12))
  (fp_line (start 8.791 1.38) (end 8.791 6.289) (layer F.SilkS) (width 0.12))
  (fp_line (start 8.831 -6.257) (end 8.831 -1.38) (layer F.SilkS) (width 0.12))
  (fp_line (start 8.831 1.38) (end 8.831 6.257) (layer F.SilkS) (width 0.12))
  (fp_line (start 8.871 -6.224) (end 8.871 -1.38) (layer F.SilkS) (width 0.12))
  (fp_line (start 8.871 1.38) (end 8.871 6.224) (layer F.SilkS) (width 0.12))
  (fp_line (start 8.911 -6.191) (end 8.911 6.191) (layer F.SilkS) (width 0.12))
  (fp_line (start 8.951 -6.158) (end 8.951 6.158) (layer F.SilkS) (width 0.12))
  (fp_line (start 8.991 -6.124) (end 8.991 6.124) (layer F.SilkS) (width 0.12))
  (fp_line (start 9.031 -6.09) (end 9.031 6.09) (layer F.SilkS) (width 0.12))
  (fp_line (start 9.071 -6.055) (end 9.071 6.055) (layer F.SilkS) (width 0.12))
  (fp_line (start 9.111 -6.02) (end 9.111 6.02) (layer F.SilkS) (width 0.12))
  (fp_line (start 9.151 -5.984) (end 9.151 5.984) (layer F.SilkS) (width 0.12))
  (fp_line (start 9.191 -5.948) (end 9.191 5.948) (layer F.SilkS) (width 0.12))
  (fp_line (start 9.231 -5.912) (end 9.231 5.912) (layer F.SilkS) (width 0.12))
  (fp_line (start 9.271 -5.875) (end 9.271 5.875) (layer F.SilkS) (width 0.12))
  (fp_line (start 9.311 -5.837) (end 9.311 5.837) (layer F.SilkS) (width 0.12))
  (fp_line (start 9.351 -5.799) (end 9.351 5.799) (layer F.SilkS) (width 0.12))
  (fp_line (start 9.391 -5.76) (end 9.391 5.76) (layer F.SilkS) (width 0.12))
  (fp_line (start 9.431 -5.721) (end 9.431 5.721) (layer F.SilkS) (width 0.12))
  (fp_line (start 9.471 -5.681) (end 9.471 5.681) (layer F.SilkS) (width 0.12))
  (fp_line (start 9.511 -5.641) (end 9.511 5.641) (layer F.SilkS) (width 0.12))
  (fp_line (start 9.551 -5.6) (end 9.551 5.6) (layer F.SilkS) (width 0.12))
  (fp_line (start 9.591 -5.559) (end 9.591 5.559) (layer F.SilkS) (width 0.12))
  (fp_line (start 9.631 -5.517) (end 9.631 5.517) (layer F.SilkS) (width 0.12))
  (fp_line (start 9.671 -5.474) (end 9.671 5.474) (layer F.SilkS) (width 0.12))
  (fp_line (start 9.711 -5.431) (end 9.711 5.431) (layer F.SilkS) (width 0.12))
  (fp_line (start 9.751 -5.387) (end 9.751 5.387) (layer F.SilkS) (width 0.12))
  (fp_line (start 9.791 -5.343) (end 9.791 5.343) (layer F.SilkS) (width 0.12))
  (fp_line (start 9.831 -5.297) (end 9.831 5.297) (layer F.SilkS) (width 0.12))
  (fp_line (start 9.871 -5.251) (end 9.871 5.251) (layer F.SilkS) (width 0.12))
  (fp_line (start 9.911 -5.205) (end 9.911 5.205) (layer F.SilkS) (width 0.12))
  (fp_line (start 9.951 -5.157) (end 9.951 5.157) (layer F.SilkS) (width 0.12))
  (fp_line (start 9.991 -5.109) (end 9.991 5.109) (layer F.SilkS) (width 0.12))
  (fp_line (start 10.031 -5.06) (end 10.031 5.06) (layer F.SilkS) (width 0.12))
  (fp_line (start 10.071 -5.011) (end 10.071 5.011) (layer F.SilkS) (width 0.12))
  (fp_line (start 10.111 -4.96) (end 10.111 4.96) (layer F.SilkS) (width 0.12))
  (fp_line (start 10.151 -4.909) (end 10.151 4.909) (layer F.SilkS) (width 0.12))
  (fp_line (start 10.191 -4.857) (end 10.191 4.857) (layer F.SilkS) (width 0.12))
  (fp_line (start 10.231 -4.804) (end 10.231 4.804) (layer F.SilkS) (width 0.12))
  (fp_line (start 10.271 -4.75) (end 10.271 4.75) (layer F.SilkS) (width 0.12))
  (fp_line (start 10.311 -4.695) (end 10.311 4.695) (layer F.SilkS) (width 0.12))
  (fp_line (start 10.351 -4.639) (end 10.351 4.639) (layer F.SilkS) (width 0.12))
  (fp_line (start 10.391 -4.582) (end 10.391 4.582) (layer F.SilkS) (width 0.12))
  (fp_line (start 10.431 -4.524) (end 10.431 4.524) (layer F.SilkS) (width 0.12))
  (fp_line (start 10.471 -4.465) (end 10.471 4.465) (layer F.SilkS) (width 0.12))
  (fp_line (start 10.511 -4.405) (end 10.511 4.405) (layer F.SilkS) (width 0.12))
  (fp_line (start 10.551 -4.343) (end 10.551 4.343) (layer F.SilkS) (width 0.12))
  (fp_line (start 10.591 -4.281) (end 10.591 4.281) (layer F.SilkS) (width 0.12))
  (fp_line (start 10.631 -4.217) (end 10.631 4.217) (layer F.SilkS) (width 0.12))
  (fp_line (start 10.671 -4.151) (end 10.671 4.151) (layer F.SilkS) (width 0.12))
  (fp_line (start 10.711 -4.084) (end 10.711 4.084) (layer F.SilkS) (width 0.12))
  (fp_line (start 10.751 -4.016) (end 10.751 4.016) (layer F.SilkS) (width 0.12))
  (fp_line (start 10.791 -3.946) (end 10.791 3.946) (layer F.SilkS) (width 0.12))
  (fp_line (start 10.831 -3.875) (end 10.831 3.875) (layer F.SilkS) (width 0.12))
  (fp_line (start 10.871 -3.802) (end 10.871 3.802) (layer F.SilkS) (width 0.12))
  (fp_line (start 10.911 -3.726) (end 10.911 3.726) (layer F.SilkS) (width 0.12))
  (fp_line (start 10.951 -3.649) (end 10.951 3.649) (layer F.SilkS) (width 0.12))
  (fp_line (start 10.991 -3.57) (end 10.991 3.57) (layer F.SilkS) (width 0.12))
  (fp_line (start 11.031 -3.489) (end 11.031 3.489) (layer F.SilkS) (width 0.12))
  (fp_line (start 11.071 -3.405) (end 11.071 3.405) (layer F.SilkS) (width 0.12))
  (fp_line (start 11.111 -3.319) (end 11.111 3.319) (layer F.SilkS) (width 0.12))
  (fp_line (start 11.151 -3.23) (end 11.151 3.23) (layer F.SilkS) (width 0.12))
  (fp_line (start 11.191 -3.138) (end 11.191 3.138) (layer F.SilkS) (width 0.12))
  (fp_line (start 11.231 -3.042) (end 11.231 3.042) (layer F.SilkS) (width 0.12))
  (fp_line (start 11.271 -2.943) (end 11.271 2.943) (layer F.SilkS) (width 0.12))
  (fp_line (start 11.311 -2.841) (end 11.311 2.841) (layer F.SilkS) (width 0.12))
  (fp_line (start 11.351 -2.733) (end 11.351 2.733) (layer F.SilkS) (width 0.12))
  (fp_line (start 11.391 -2.621) (end 11.391 2.621) (layer F.SilkS) (width 0.12))
  (fp_line (start 11.431 -2.503) (end 11.431 2.503) (layer F.SilkS) (width 0.12))
  (fp_line (start 11.471 -2.379) (end 11.471 2.379) (layer F.SilkS) (width 0.12))
  (fp_line (start 11.511 -2.248) (end 11.511 2.248) (layer F.SilkS) (width 0.12))
  (fp_line (start 11.551 -2.107) (end 11.551 2.107) (layer F.SilkS) (width 0.12))
  (fp_line (start 11.591 -1.956) (end 11.591 1.956) (layer F.SilkS) (width 0.12))
  (fp_line (start 11.631 -1.792) (end 11.631 1.792) (layer F.SilkS) (width 0.12))
  (fp_line (start 11.671 -1.61) (end 11.671 1.61) (layer F.SilkS) (width 0.12))
  (fp_line (start 11.711 -1.405) (end 11.711 1.405) (layer F.SilkS) (width 0.12))
  (fp_line (start 11.751 -1.164) (end 11.751 1.164) (layer F.SilkS) (width 0.12))
  (fp_line (start 11.791 -0.859) (end 11.791 0.859) (layer F.SilkS) (width 0.12))
  (fp_line (start 11.831 -0.363) (end 11.831 0.363) (layer F.SilkS) (width 0.12))
  (fp_line (start -3.2 0) (end -1.4 0) (layer F.SilkS) (width 0.12))
  (fp_line (start -2.3 -0.9) (end -2.3 0.9) (layer F.SilkS) (width 0.12))
  (fp_line (start -4.6 -8.35) (end -4.6 8.35) (layer F.CrtYd) (width 0.05))
  (fp_line (start -4.6 8.35) (end 12.1 8.35) (layer F.CrtYd) (width 0.05))
  (fp_line (start 12.1 8.35) (end 12.1 -8.35) (layer F.CrtYd) (width 0.05))
  (fp_line (start 12.1 -8.35) (end -4.6 -8.35) (layer F.CrtYd) (width 0.05))
  (fp_circle (center 3.75 0) (end 11.75 0) (layer F.Fab) (width 0.1))
  (fp_circle (center 3.75 0) (end 11.84 0) (layer F.SilkS) (width 0.12))
  (pad 1 thru_hole rect (at 0 0) (size 2.4 2.4) (drill 1.2) (layers *.Cu *.Mask))
  (pad 2 thru_hole circle (at 7.5 0) (size 2.4 2.4) (drill 1.2) (layers *.Cu *.Mask))
  (model ${KISYS3DMOD}/Capacitors_THT.3dshapes/CP_Radial_D16.0mm_P7.50mm.wrl
    (at (xyz 0 0 0))
    (scale (xyz 0.393701 0.393701 0.393701))
    (rotate (xyz 0 0 0))
  )
)
