(module FUSE_3A (layer F.Cu) (tedit 58B40478)
  (fp_text reference REF** (at 0 0) (layer F.SilkS)
    (effects (font (size 1 1) (thickness 0.15)))
  )
  (fp_text value FUSE_3 (at -0.25 3) (layer F.Fab)
    (effects (font (size 1 1) (thickness 0.15)))
  )
  (fp_line (start -0.17 2.032) (end -3.048 2.032) (layer F.Cu) (width 0.3))
  (fp_line (start 0.15 1.524) (end -3.048 1.524) (layer F.Cu) (width 0.32))
  (fp_line (start -0.17 1.016) (end -3.048 1.016) (layer F.Cu) (width 0.3))
  (fp_line (start 0.17 2.032) (end 2.794 2.032) (layer F.Cu) (width 0.3))
  (fp_line (start 0 1.524) (end 2.794 1.524) (layer F.Cu) (width 0.32))
  (fp_line (start 0.17 1.016) (end 2.794 1.016) (layer F.Cu) (width 0.3))
  (fp_line (start -3 2.28) (end 2.75 2.28) (layer F.SilkS) (width 0.15))
  (fp_line (start -3 0.76) (end 2.75 0.76) (layer F.SilkS) (width 0.15))
  (pad 1 thru_hole circle (at -3 1.5) (size 1.524 1.524) (drill 0.762) (layers *.Cu *.Mask F.SilkS))
  (pad 2 thru_hole circle (at 2.75 1.5) (size 1.524 1.524) (drill 0.762) (layers *.Cu *.Mask F.SilkS))
)
