EESchema Schematic File Version 2
LIBS:power
LIBS:device
LIBS:transistors
LIBS:conn
LIBS:linear
LIBS:regul
LIBS:74xx
LIBS:cmos4000
LIBS:adc-dac
LIBS:memory
LIBS:xilinx
LIBS:microcontrollers
LIBS:dsp
LIBS:microchip
LIBS:analog_switches
LIBS:motorola
LIBS:texas
LIBS:intel
LIBS:audio
LIBS:interface
LIBS:digital-audio
LIBS:philips
LIBS:display
LIBS:cypress
LIBS:siliconi
LIBS:opto
LIBS:atmel
LIBS:contrib
LIBS:valves
LIBS:uc3842
LIBS:addon
LIBS:project-cache
EELAYER 25 0
EELAYER END
$Descr A4 11693 8268
encoding utf-8
Sheet 1 1
Title "Power Supply"
Date "2017-02-27"
Rev "Rev 0.2"
Comp "Illumium.Org"
Comment1 ""
Comment2 ""
Comment3 ""
Comment4 ""
$EndDescr
$Comp
L UC3842A U100
U 1 1 577E79BD
P 4600 2900
F 0 "U100" H 4600 3900 60  0000 C CNN
F 1 "UC3842A" H 4600 1900 60  0000 C CNN
F 2 "Local:SOIC-8_3.9x4.9mm_Pitch1.27mm" H 4550 2400 60  0001 C CNN
F 3 "" H 4550 2400 60  0000 C CNN
	1    4600 2900
	1    0    0    -1  
$EndComp
$Comp
L GNDPWR #PWR01
U 1 1 577E8D96
P 6300 3700
F 0 "#PWR01" H 6300 3500 50  0001 C CNN
F 1 "GNDPWR" H 6300 3570 50  0000 C CNN
F 2 "" H 6300 3650 50  0000 C CNN
F 3 "" H 6300 3650 50  0000 C CNN
	1    6300 3700
	1    0    0    -1  
$EndComp
$Comp
L C C130
U 1 1 577E8DD6
P 1400 4350
F 0 "C130" H 1425 4450 50  0000 L CNN
F 1 "15n" H 1425 4250 50  0000 L CNN
F 2 "Local:C_0603" H 1438 4200 50  0001 C CNN
F 3 "" H 1400 4350 50  0000 C CNN
	1    1400 4350
	-1   0    0    -1  
$EndComp
$Comp
L GNDPWR #PWR02
U 1 1 577E8E2A
P 1400 4600
F 0 "#PWR02" H 1400 4400 50  0001 C CNN
F 1 "GNDPWR" H 1400 4470 50  0000 C CNN
F 2 "" H 1400 4550 50  0000 C CNN
F 3 "" H 1400 4550 50  0000 C CNN
	1    1400 4600
	1    0    0    -1  
$EndComp
$Comp
L PC817 U140
U 1 1 577E8FE7
P 5100 5300
F 0 "U140" H 5100 5500 50  0000 C CNN
F 1 "PC817C" H 5100 5100 50  0000 C CNN
F 2 "Local:SOP-4_W7.62mm" H 4900 5100 50  0001 L CIN
F 3 "" H 5100 5300 50  0000 L CNN
	1    5100 5300
	-1   0    0    -1  
$EndComp
$Comp
L R R130
U 1 1 577E91B8
P 1400 3850
F 0 "R130" V 1480 3850 50  0000 C CNN
F 1 "680" V 1400 3850 50  0000 C CNN
F 2 "Local:R_0603" V 1330 3850 50  0001 C CNN
F 3 "" H 1400 3850 50  0000 C CNN
	1    1400 3850
	-1   0    0    1   
$EndComp
$Comp
L R R110
U 1 1 577E94B2
P 7100 2150
F 0 "R110" V 7180 2150 50  0000 C CNN
F 1 "100K" V 7100 2150 50  0000 C CNN
F 2 "Local:R_Axial_DIN0516_L15.5mm_D5.0mm_P5.08mm_Vertical" V 7030 2150 50  0001 C CNN
F 3 "" H 7100 2150 50  0000 C CNN
	1    7100 2150
	-1   0    0    1   
$EndComp
$Comp
L C C131
U 1 1 577E98AF
P 2000 4350
F 0 "C131" H 2025 4450 50  0000 L CNN
F 1 "100n" H 2025 4250 50  0000 L CNN
F 2 "Local:C_0805" H 2038 4200 50  0001 C CNN
F 3 "" H 2000 4350 50  0000 C CNN
	1    2000 4350
	-1   0    0    -1  
$EndComp
$Comp
L GNDPWR #PWR03
U 1 1 577E992E
P 2000 4600
F 0 "#PWR03" H 2000 4400 50  0001 C CNN
F 1 "GNDPWR" H 2000 4470 50  0000 C CNN
F 2 "" H 2000 4550 50  0000 C CNN
F 3 "" H 2000 4550 50  0000 C CNN
	1    2000 4600
	1    0    0    -1  
$EndComp
$Comp
L Q_NMOS_GDS Q120
U 1 1 577E9A51
P 7900 3200
F 0 "Q120" H 7900 3350 50  0000 R CNN
F 1 "SPD60N80C3" V 8150 3200 50  0000 C CNN
F 2 "Local:TO-252-2Lead" H 8100 3300 50  0001 C CNN
F 3 "" H 7900 3200 50  0000 C CNN
	1    7900 3200
	1    0    0    -1  
$EndComp
$Comp
L R R120
U 1 1 577E9B21
P 7350 3200
F 0 "R120" V 7430 3200 50  0000 C CNN
F 1 "22R" V 7350 3200 50  0000 C CNN
F 2 "Local:R_0603" V 7280 3200 50  0001 C CNN
F 3 "" H 7350 3200 50  0000 C CNN
	1    7350 3200
	0    1    -1   0   
$EndComp
$Comp
L R R122
U 1 1 577E9EDE
P 8000 3850
F 0 "R122" V 8080 3850 50  0000 C CNN
F 1 "0R4" V 8000 3850 50  0000 C CNN
F 2 "Local:R_1206" V 7930 3850 50  0001 C CNN
F 3 "" H 8000 3850 50  0000 C CNN
	1    8000 3850
	-1   0    0    -1  
$EndComp
$Comp
L GNDPWR #PWR04
U 1 1 577EA03B
P 8000 4500
F 0 "#PWR04" H 8000 4300 50  0001 C CNN
F 1 "GNDPWR" H 8000 4370 50  0000 C CNN
F 2 "" H 8000 4450 50  0000 C CNN
F 3 "" H 8000 4450 50  0000 C CNN
	1    8000 4500
	1    0    0    -1  
$EndComp
$Comp
L R R123
U 1 1 577EA0AD
P 8250 3600
F 0 "R123" V 8330 3600 50  0000 C CNN
F 1 "1K" V 8250 3600 50  0000 C CNN
F 2 "Local:R_0603" V 8180 3600 50  0001 C CNN
F 3 "" H 8250 3600 50  0000 C CNN
	1    8250 3600
	0    1    -1   0   
$EndComp
$Comp
L C C120
U 1 1 577EA10A
P 8500 3850
F 0 "C120" H 8525 3950 50  0000 L CNN
F 1 "470p" H 8525 3750 50  0000 L CNN
F 2 "Local:C_0603" H 8538 3700 50  0001 C CNN
F 3 "" H 8500 3850 50  0000 C CNN
	1    8500 3850
	-1   0    0    -1  
$EndComp
$Comp
L GNDPWR #PWR05
U 1 1 577EA260
P 8500 4100
F 0 "#PWR05" H 8500 3900 50  0001 C CNN
F 1 "GNDPWR" H 8500 3970 50  0000 C CNN
F 2 "" H 8500 4050 50  0000 C CNN
F 3 "" H 8500 4050 50  0000 C CNN
	1    8500 4100
	1    0    0    -1  
$EndComp
$Comp
L TRANS_4Y T100
U 1 1 577EA8ED
P 8700 2000
F 0 "T100" H 8700 2500 50  0000 C CNN
F 1 "TRANS_4Y" H 8700 1500 50  0000 C CNN
F 2 "Local:EE25_6V_8P" H 8700 2000 60  0001 C CNN
F 3 "" H 8700 2000 60  0000 C CNN
	1    8700 2000
	1    0    0    -1  
$EndComp
$Comp
L VPP #PWR06
U 1 1 577EAC36
P 8200 1200
F 0 "#PWR06" H 8200 1050 50  0001 C CNN
F 1 "VPP" H 8200 1350 50  0000 C CNN
F 2 "" H 8200 1200 50  0000 C CNN
F 3 "" H 8200 1200 50  0000 C CNN
	1    8200 1200
	1    0    0    -1  
$EndComp
$Comp
L D D121
U 1 1 577EAE78
P 7700 1850
F 0 "D121" H 7700 1950 50  0000 C CNN
F 1 "FR107" H 7700 1750 50  0000 C CNN
F 2 "Local:D_SOD-123" H 7700 1850 50  0001 C CNN
F 3 "" H 7700 1850 50  0000 C CNN
	1    7700 1850
	0    -1   1    0   
$EndComp
$Comp
L GNDPWR #PWR07
U 1 1 577EBC5A
P 8200 2200
F 0 "#PWR07" H 8200 2000 50  0001 C CNN
F 1 "GNDPWR" H 8200 2070 50  0000 C CNN
F 2 "" H 8200 2150 50  0000 C CNN
F 3 "" H 8200 2150 50  0000 C CNN
	1    8200 2200
	1    0    0    -1  
$EndComp
$Comp
L D D110
U 1 1 577EBEA7
P 7750 2400
F 0 "D110" H 7750 2500 50  0000 C CNN
F 1 "1N4148" H 7750 2300 50  0000 C CNN
F 2 "Local:D_MiniMELF_Standard" H 7750 2400 50  0001 C CNN
F 3 "" H 7750 2400 50  0000 C CNN
	1    7750 2400
	1    0    0    -1  
$EndComp
$Comp
L R R113
U 1 1 577EC035
P 7350 2400
F 0 "R113" V 7430 2400 50  0000 C CNN
F 1 "22R" V 7350 2400 50  0000 C CNN
F 2 "Local:R_1206" V 7280 2400 50  0001 C CNN
F 3 "" H 7350 2400 50  0000 C CNN
	1    7350 2400
	0    1    -1   0   
$EndComp
$Comp
L CP C111
U 1 1 577EC1F5
P 7100 2650
F 0 "C111" H 7125 2750 50  0000 L CNN
F 1 "47u 50V" H 6950 2550 50  0000 L CNN
F 2 "Local:CP_Radial_D6.3mm_P2.50mm" H 7138 2500 50  0001 C CNN
F 3 "" H 7100 2650 50  0000 C CNN
	1    7100 2650
	1    0    0    -1  
$EndComp
$Comp
L GNDPWR #PWR08
U 1 1 577EC815
P 7100 2900
F 0 "#PWR08" H 7100 2700 50  0001 C CNN
F 1 "GNDPWR" H 7100 2770 50  0000 C CNN
F 2 "" H 7100 2850 50  0000 C CNN
F 3 "" H 7100 2850 50  0000 C CNN
	1    7100 2900
	1    0    0    -1  
$EndComp
$Comp
L D D150
U 1 1 577EDBB7
P 9550 2100
F 0 "D150" H 9550 2200 50  0000 C CNN
F 1 "ES3D" H 9550 2000 50  0000 C CNN
F 2 "Local:D_SMC_Standard" H 9550 2100 50  0001 C CNN
F 3 "" H 9550 2100 50  0000 C CNN
	1    9550 2100
	-1   0    0    -1  
$EndComp
$Comp
L CP C150
U 1 1 577EE4A7
P 10000 3850
F 0 "C150" H 10025 3950 50  0000 L CNN
F 1 "1m 35V" H 9850 3750 50  0000 L CNN
F 2 "Local:CP_Radial_D10.0mm_P5.00mm" H 10038 3700 50  0001 C CNN
F 3 "" H 10000 3850 50  0000 C CNN
	1    10000 3850
	1    0    0    -1  
$EndComp
$Comp
L GND #PWR09
U 1 1 577EE81C
P 10000 4100
F 0 "#PWR09" H 10000 3850 50  0001 C CNN
F 1 "GND" H 10000 3950 50  0000 C CNN
F 2 "" H 10000 4100 50  0000 C CNN
F 3 "" H 10000 4100 50  0000 C CNN
	1    10000 4100
	1    0    0    -1  
$EndComp
$Comp
L R R143
U 1 1 577F096D
P 5700 5150
F 0 "R143" V 5780 5150 50  0000 C CNN
F 1 "1K" V 5700 5150 50  0000 C CNN
F 2 "Local:R_0603" V 5630 5150 50  0001 C CNN
F 3 "" H 5700 5150 50  0000 C CNN
	1    5700 5150
	-1   0    0    1   
$EndComp
$Comp
L GND #PWR010
U 1 1 577F0D52
P 5700 5900
F 0 "#PWR010" H 5700 5650 50  0001 C CNN
F 1 "GND" H 5700 5750 50  0000 C CNN
F 2 "" H 5700 5900 50  0000 C CNN
F 3 "" H 5700 5900 50  0000 C CNN
	1    5700 5900
	1    0    0    -1  
$EndComp
$Comp
L VPP #PWR011
U 1 1 577F254E
P 3300 6700
F 0 "#PWR011" H 3300 6550 50  0001 C CNN
F 1 "VPP" H 3300 6850 50  0000 C CNN
F 2 "" H 3300 6700 50  0000 C CNN
F 3 "" H 3300 6700 50  0000 C CNN
	1    3300 6700
	1    0    0    -1  
$EndComp
$Comp
L GNDPWR #PWR012
U 1 1 577F4439
P 3300 7200
F 0 "#PWR012" H 3300 7000 50  0001 C CNN
F 1 "GNDPWR" H 3300 7070 50  0000 C CNN
F 2 "" H 3300 7150 50  0000 C CNN
F 3 "" H 3300 7150 50  0000 C CNN
	1    3300 7200
	1    0    0    -1  
$EndComp
Text Notes 5950 5600 0    60   ~ 0
VOUT~~16.5V
Text Label 2700 2400 0    60   ~ 0
VREF
Text Label 2700 3600 0    60   ~ 0
RTCT
Text Label 1700 4100 2    60   ~ 0
RTCT
Text Label 1600 3600 2    60   ~ 0
VREF
Text Label 2700 3400 0    60   ~ 0
ISENS
Text Notes 1150 4550 1    60   ~ 0
file: uc384x.max
Text Notes 5800 5300 0    60   ~ 0
R[BIAS]
Text Notes 5450 6350 1    60   ~ 0
file: feedback.max
Text Label 2200 4100 2    60   ~ 0
VREF
Text Label 2700 3200 0    60   ~ 0
COMP
Text Label 8800 3600 2    60   ~ 0
ISENS
$Comp
L R R121
U 1 1 58B552ED
P 7600 3850
F 0 "R121" V 7680 3850 50  0000 C CNN
F 1 "10K" V 7600 3850 50  0000 C CNN
F 2 "Local:R_0603" V 7530 3850 50  0001 C CNN
F 3 "" H 7600 3850 50  0000 C CNN
	1    7600 3850
	-1   0    0    -1  
$EndComp
$Comp
L GNDPWR #PWR013
U 1 1 58B553A0
P 7600 4100
F 0 "#PWR013" H 7600 3900 50  0001 C CNN
F 1 "GNDPWR" H 7600 3970 50  0000 C CNN
F 2 "" H 7600 4050 50  0000 C CNN
F 3 "" H 7600 4050 50  0000 C CNN
	1    7600 4100
	1    0    0    -1  
$EndComp
$Comp
L D_Zener D122
U 1 1 58B559CB
P 7200 3850
F 0 "D122" H 7200 3950 50  0000 C CNN
F 1 "18V" H 7200 3750 50  0000 C CNN
F 2 "Local:D_MiniMELF_Standard" H 7200 3850 50  0001 C CNN
F 3 "" H 7200 3850 50  0000 C CNN
	1    7200 3850
	0    -1   1    0   
$EndComp
$Comp
L GNDPWR #PWR014
U 1 1 58B55BB5
P 7200 4100
F 0 "#PWR014" H 7200 3900 50  0001 C CNN
F 1 "GNDPWR" H 7200 3970 50  0000 C CNN
F 2 "" H 7200 4050 50  0000 C CNN
F 3 "" H 7200 4050 50  0000 C CNN
	1    7200 4100
	1    0    0    -1  
$EndComp
$Comp
L C C110
U 1 1 58B41264
P 6700 2650
F 0 "C110" H 6725 2750 50  0000 L CNN
F 1 "100n" H 6725 2550 50  0000 L CNN
F 2 "Local:C_0805" H 6738 2500 50  0001 C CNN
F 3 "" H 6700 2650 50  0000 C CNN
	1    6700 2650
	-1   0    0    -1  
$EndComp
Text Label 6400 2400 2    60   ~ 0
VCC
Text Label 6400 3200 2    60   ~ 0
GATE
Text Label 7000 3200 0    60   ~ 0
GATE
Text Label 6600 2400 0    60   ~ 0
VCC
$Comp
L GNDPWR #PWR015
U 1 1 58B42D5B
P 6700 2900
F 0 "#PWR015" H 6700 2700 50  0001 C CNN
F 1 "GNDPWR" H 6700 2770 50  0000 C CNN
F 2 "" H 6700 2850 50  0000 C CNN
F 3 "" H 6700 2850 50  0000 C CNN
	1    6700 2900
	1    0    0    -1  
$EndComp
Text Label 9900 2100 2    60   ~ 0
VOUT
Text Label 10000 3400 3    60   ~ 0
VOUT
$Comp
L GND #PWR016
U 1 1 58B461E9
P 9300 2400
F 0 "#PWR016" H 9300 2150 50  0001 C CNN
F 1 "GND" V 9300 2200 50  0000 C CNN
F 2 "" H 9300 2400 50  0000 C CNN
F 3 "" H 9300 2400 50  0000 C CNN
	1    9300 2400
	0    -1   -1   0   
$EndComp
$Comp
L C C101
U 1 1 58B48E2A
P 3300 5750
F 0 "C101" H 3325 5850 50  0000 L CNN
F 1 "2n2 400V" H 3150 5650 50  0000 L CNN
F 2 "Local:C_Disc_D7.5mm_W3.5mm_P7.50mm" H 3338 5600 50  0001 C CNN
F 3 "" H 3300 5750 50  0000 C CNN
	1    3300 5750
	1    0    0    -1  
$EndComp
$Comp
L GNDPWR #PWR017
U 1 1 58B48FDF
P 3300 6000
F 0 "#PWR017" H 3300 5800 50  0001 C CNN
F 1 "GNDPWR" H 3300 5870 50  0000 C CNN
F 2 "" H 3300 5950 50  0000 C CNN
F 3 "" H 3300 5950 50  0000 C CNN
	1    3300 6000
	1    0    0    -1  
$EndComp
$Comp
L GND #PWR018
U 1 1 58B492A4
P 3700 6000
F 0 "#PWR018" H 3700 5750 50  0001 C CNN
F 1 "GND" H 3700 5850 50  0000 C CNN
F 2 "" H 3700 6000 50  0000 C CNN
F 3 "" H 3700 6000 50  0000 C CNN
	1    3700 6000
	1    0    0    -1  
$EndComp
$Comp
L CP C103
U 1 1 58B4608A
P 3300 6950
F 0 "C103" H 3325 7050 50  0000 L CNN
F 1 "47uF 400V" H 3100 6850 50  0000 L CNN
F 2 "Local:CP_Radial_D16.0mm_P7.50mm" H 3338 6800 50  0001 C CNN
F 3 "" H 3300 6950 50  0000 C CNN
	1    3300 6950
	1    0    0    -1  
$EndComp
$Comp
L CONN_01X02 P100
U 1 1 58B4878E
P 1000 6900
F 0 "P100" H 1000 7050 50  0000 C CNN
F 1 "ACIN" V 1100 6900 50  0000 C CNN
F 2 "Local:2PIN_HEAD" H 1000 6900 50  0001 C CNN
F 3 "" H 1000 6900 50  0000 C CNN
	1    1000 6900
	-1   0    0    1   
$EndComp
$Comp
L CONN_01X02 P150
U 1 1 58B494ED
P 10800 3950
F 0 "P150" H 10800 4100 50  0000 C CNN
F 1 "POWER" V 10900 3950 50  0000 C CNN
F 2 "Local:2PIN_HEAD" H 10800 3950 50  0001 C CNN
F 3 "" H 10800 3950 50  0000 C CNN
	1    10800 3950
	1    0    0    -1  
$EndComp
$Comp
L GND #PWR019
U 1 1 58B499ED
P 10500 4100
F 0 "#PWR019" H 10500 3850 50  0001 C CNN
F 1 "GND" H 10500 3950 50  0000 C CNN
F 2 "" H 10500 4100 50  0000 C CNN
F 3 "" H 10500 4100 50  0000 C CNN
	1    10500 4100
	1    0    0    -1  
$EndComp
Text Label 10500 3400 3    60   ~ 0
VOUT
$Comp
L Thermistor_NTC TH100
U 1 1 58B41B39
P 2450 6900
F 0 "TH100" V 2550 6950 50  0000 C CNN
F 1 "10R" V 2350 6900 50  0000 C BNN
F 2 "Local:C_Disc_D7.5mm_W3.5mm_P7.50mm" H 2450 6900 50  0001 C CNN
F 3 "" H 2450 6900 50  0000 C CNN
	1    2450 6900
	0    -1   -1   0   
$EndComp
$Comp
L GNDPWR #PWR020
U 1 1 58B43EAF
P 1500 7000
F 0 "#PWR020" H 1500 6800 50  0001 C CNN
F 1 "GNDPWR" H 1500 6870 50  0000 C CNN
F 2 "" H 1500 6950 50  0000 C CNN
F 3 "" H 1500 6950 50  0000 C CNN
	1    1500 7000
	1    0    0    -1  
$EndComp
$Comp
L Fuse F100
U 1 1 58B4432C
P 1600 7300
F 0 "F100" V 1700 7300 50  0000 C CNN
F 1 "3A" V 1500 7300 50  0000 C CNN
F 2 "Local:FUSE_3A" H 1600 7300 50  0001 C CNN
F 3 "" H 1600 7300 50  0000 C CNN
	1    1600 7300
	0    -1   -1   0   
$EndComp
$Comp
L GNDPWR #PWR021
U 1 1 58B415E8
P 3300 4500
F 0 "#PWR021" H 3300 4300 50  0001 C CNN
F 1 "GNDPWR" H 3300 4370 50  0000 C CNN
F 2 "" H 3300 4450 50  0000 C CNN
F 3 "" H 3300 4450 50  0000 C CNN
	1    3300 4500
	1    0    0    -1  
$EndComp
$Comp
L PWR_FLAG #FLG022
U 1 1 58B419E4
P 3300 4400
F 0 "#FLG022" H 3300 4495 50  0001 C CNN
F 1 "PWR_FLAG" H 3300 4580 50  0000 C CNN
F 2 "" H 3300 4400 50  0000 C CNN
F 3 "" H 3300 4400 50  0000 C CNN
	1    3300 4400
	1    0    0    -1  
$EndComp
Text Label 3800 4600 1    60   ~ 0
VCC
$Comp
L PWR_FLAG #FLG023
U 1 1 58B41FD0
P 3800 4400
F 0 "#FLG023" H 3800 4495 50  0001 C CNN
F 1 "PWR_FLAG" H 3800 4580 50  0000 C CNN
F 2 "" H 3800 4400 50  0000 C CNN
F 3 "" H 3800 4400 50  0000 C CNN
	1    3800 4400
	1    0    0    -1  
$EndComp
$Comp
L GND #PWR024
U 1 1 58B425FE
P 10500 3050
F 0 "#PWR024" H 10500 2800 50  0001 C CNN
F 1 "GND" H 10500 2900 50  0000 C CNN
F 2 "" H 10500 3050 50  0000 C CNN
F 3 "" H 10500 3050 50  0000 C CNN
	1    10500 3050
	1    0    0    -1  
$EndComp
$Comp
L PWR_FLAG #FLG025
U 1 1 58B42A97
P 10500 2950
F 0 "#FLG025" H 10500 3045 50  0001 C CNN
F 1 "PWR_FLAG" H 10500 3130 50  0000 C CNN
F 2 "" H 10500 2950 50  0000 C CNN
F 3 "" H 10500 2950 50  0000 C CNN
	1    10500 2950
	1    0    0    -1  
$EndComp
$Comp
L VPP #PWR026
U 1 1 58B42FB9
P 3300 5100
F 0 "#PWR026" H 3300 4950 50  0001 C CNN
F 1 "VPP" H 3300 5250 50  0000 C CNN
F 2 "" H 3300 5100 50  0000 C CNN
F 3 "" H 3300 5100 50  0000 C CNN
	1    3300 5100
	1    0    0    -1  
$EndComp
$Comp
L PWR_FLAG #FLG027
U 1 1 58B43554
P 3700 5100
F 0 "#FLG027" H 3700 5195 50  0001 C CNN
F 1 "PWR_FLAG" H 3700 5280 50  0000 C CNN
F 2 "" H 3700 5100 50  0000 C CNN
F 3 "" H 3700 5100 50  0000 C CNN
	1    3700 5100
	1    0    0    -1  
$EndComp
Text Label 10000 3150 1    60   ~ 0
VOUT
$Comp
L PWR_FLAG #FLG028
U 1 1 58B4416E
P 10000 2950
F 0 "#FLG028" H 10000 3045 50  0001 C CNN
F 1 "PWR_FLAG" H 10000 3130 50  0000 C CNN
F 2 "" H 10000 2950 50  0000 C CNN
F 3 "" H 10000 2950 50  0000 C CNN
	1    10000 2950
	1    0    0    -1  
$EndComp
Text Label 8000 2800 1    60   ~ 0
DRV
Text Notes 9750 1600 0    60   ~ 0
Ferrite core: EE25/19/10\nAir gap: 1mm\n\nPrimary coil:\n311V 0.3mm x1 122T 1mH\n\nSecondary coils:\n0: 15V 0.1mm x1 15T\n1: 15V 0.7mm x2 15T
Text Notes 8300 1750 0    60   ~ 0
PRI
Text Notes 8300 2250 0    60   ~ 0
SEC0
Text Notes 8900 2250 0    60   ~ 0
SEC1
$Comp
L PWR_FLAG #FLG029
U 1 1 58BA7766
P 1900 7400
F 0 "#FLG029" H 1900 7495 50  0001 C CNN
F 1 "PWR_FLAG" H 1900 7580 50  0000 C CNN
F 2 "" H 1900 7400 50  0000 C CNN
F 3 "" H 1900 7400 50  0000 C CNN
	1    1900 7400
	-1   0    0    1   
$EndComp
$Comp
L R R125
U 1 1 5924204E
P 7950 1600
F 0 "R125" V 8030 1600 50  0000 C CNN
F 1 "12K" V 7950 1600 50  0000 C CNN
F 2 "Local:R_Axial_DIN0516_L15.5mm_D5.0mm_P5.08mm_Vertical" V 7880 1600 50  0001 C CNN
F 3 "" H 7950 1600 50  0000 C CNN
	1    7950 1600
	0    -1   -1   0   
$EndComp
$Comp
L C C121
U 1 1 592421F6
P 7950 1300
F 0 "C121" H 7975 1400 50  0000 L CNN
F 1 "4n7" H 7975 1200 50  0000 L CNN
F 2 "Local:C_Disc_D5.0mm_W2.5mm_P5.00mm" H 7988 1150 50  0001 C CNN
F 3 "" H 7950 1300 50  0000 C CNN
	1    7950 1300
	0    -1   -1   0   
$EndComp
$Comp
L VPP #PWR030
U 1 1 5924E017
P 2700 6800
F 0 "#PWR030" H 2700 6650 50  0001 C CNN
F 1 "VPP" H 2700 6950 50  0000 C CNN
F 2 "" H 2700 6800 50  0000 C CNN
F 3 "" H 2700 6800 50  0000 C CNN
	1    2700 6800
	1    0    0    -1  
$EndComp
Text Label 2700 3000 0    60   ~ 0
VFB
$Comp
L GNDPWR #PWR031
U 1 1 577E8F4E
P 4700 5500
F 0 "#PWR031" H 4700 5300 50  0001 C CNN
F 1 "GNDPWR" H 4700 5370 50  0000 C CNN
F 2 "" H 4700 5450 50  0000 C CNN
F 3 "" H 4700 5450 50  0000 C CNN
	1    4700 5500
	1    0    0    -1  
$EndComp
Text Label 1600 3000 2    60   ~ 0
VFB
$Comp
L GNDPWR #PWR032
U 1 1 592505B2
P 1400 3100
F 0 "#PWR032" H 1400 2900 50  0001 C CNN
F 1 "GNDPWR" H 1400 2970 50  0000 C CNN
F 2 "" H 1400 3050 50  0000 C CNN
F 3 "" H 1400 3050 50  0000 C CNN
	1    1400 3100
	1    0    0    -1  
$EndComp
Wire Wire Line
	1400 3000 1600 3000
Wire Wire Line
	1400 3000 1400 3100
Connection ~ 9300 2100
Wire Wire Line
	9300 1600 9100 1600
Wire Wire Line
	9300 2100 9300 1600
Connection ~ 9200 2400
Wire Wire Line
	9200 1900 9100 1900
Wire Wire Line
	9200 2400 9200 1900
Connection ~ 8200 1300
Wire Wire Line
	8100 1300 8200 1300
Connection ~ 1900 7300
Wire Wire Line
	1750 7300 1900 7300
Wire Wire Line
	1900 7200 1900 7400
Wire Wire Line
	1900 6500 1900 6600
Wire Wire Line
	1300 6500 1900 6500
Wire Wire Line
	1500 6900 1500 7000
Wire Wire Line
	1600 6900 1500 6900
Wire Wire Line
	8000 1900 8000 3000
Wire Wire Line
	10000 3150 10000 2950
Wire Wire Line
	3700 5200 3700 5100
Wire Wire Line
	3300 5200 3700 5200
Wire Wire Line
	3300 5100 3300 5200
Wire Wire Line
	10500 3050 10500 2950
Wire Wire Line
	3800 4600 3800 4400
Wire Wire Line
	3300 4500 3300 4400
Wire Wire Line
	1300 7300 1450 7300
Wire Wire Line
	1300 6950 1300 7300
Wire Wire Line
	1300 6500 1300 6850
Wire Wire Line
	1200 6950 1300 6950
Wire Wire Line
	1300 6850 1200 6850
Wire Wire Line
	10500 3400 10500 3900
Wire Wire Line
	10500 3900 10600 3900
Wire Wire Line
	10500 4000 10600 4000
Wire Wire Line
	10500 4100 10500 4000
Wire Wire Line
	3700 5500 3700 6000
Wire Wire Line
	3300 5500 3700 5500
Wire Wire Line
	3300 5600 3300 5500
Wire Wire Line
	3300 5900 3300 6000
Wire Wire Line
	6700 2800 6700 2900
Connection ~ 6700 2400
Wire Wire Line
	6700 2400 6700 2500
Wire Wire Line
	6200 2400 6400 2400
Wire Wire Line
	6200 3200 6400 3200
Connection ~ 7600 3600
Wire Wire Line
	7200 3600 7600 3600
Wire Wire Line
	7200 3700 7200 3600
Wire Wire Line
	7200 4000 7200 4100
Wire Wire Line
	7600 4000 7600 4100
Connection ~ 8500 3600
Wire Wire Line
	4700 5200 4700 4950
Wire Wire Line
	4700 5400 4800 5400
Wire Wire Line
	3000 3200 2700 3200
Wire Wire Line
	3000 3000 2700 3000
Wire Wire Line
	2000 4100 2000 4200
Wire Wire Line
	2200 4100 2000 4100
Wire Wire Line
	5400 5400 5700 5400
Wire Wire Line
	5500 4900 5700 4900
Wire Wire Line
	5500 5200 5500 4900
Wire Wire Line
	5400 5200 5500 5200
Wire Wire Line
	1400 3600 1600 3600
Wire Wire Line
	1400 3700 1400 3600
Connection ~ 1400 4100
Wire Wire Line
	1700 4100 1400 4100
Wire Wire Line
	3000 2400 2700 2400
Wire Wire Line
	4700 5200 4800 5200
Wire Wire Line
	3000 3400 2700 3400
Wire Wire Line
	3300 6800 3300 6700
Wire Wire Line
	3300 7100 3300 7200
Connection ~ 5700 5400
Wire Wire Line
	5700 5300 5700 5500
Wire Wire Line
	5700 5800 5700 5900
Wire Wire Line
	5700 4600 5700 5000
Wire Wire Line
	10000 4100 10000 4000
Wire Wire Line
	10000 3400 10000 3700
Wire Wire Line
	9700 2100 9900 2100
Wire Wire Line
	9100 2100 9400 2100
Wire Wire Line
	9100 2400 9300 2400
Wire Wire Line
	8300 2400 7900 2400
Wire Wire Line
	7100 2800 7100 2900
Wire Wire Line
	7600 2400 7500 2400
Wire Wire Line
	8200 2100 8200 2200
Wire Wire Line
	8300 2100 8200 2100
Wire Wire Line
	8000 1900 8300 1900
Wire Wire Line
	8100 1600 8300 1600
Wire Wire Line
	8200 1200 8200 1600
Wire Wire Line
	8500 4000 8500 4100
Wire Wire Line
	8500 3600 8500 3700
Wire Wire Line
	8400 3600 8800 3600
Connection ~ 8000 3600
Wire Wire Line
	8000 3600 8100 3600
Wire Wire Line
	8000 4000 8000 4100
Wire Wire Line
	8000 3400 8000 3700
Connection ~ 7600 3200
Wire Wire Line
	7500 3200 7700 3200
Wire Wire Line
	7600 3200 7600 3700
Wire Wire Line
	7000 3200 7200 3200
Wire Wire Line
	2000 4500 2000 4600
Connection ~ 7100 2400
Wire Wire Line
	7100 2000 7100 1900
Wire Wire Line
	7100 2300 7100 2500
Wire Wire Line
	6600 2400 7200 2400
Wire Wire Line
	4700 5400 4700 5500
Wire Wire Line
	1400 4500 1400 4600
Wire Wire Line
	1400 4000 1400 4200
Wire Wire Line
	2700 3600 3000 3600
Wire Wire Line
	6300 3600 6300 3700
Wire Wire Line
	6200 3600 6300 3600
Text Label 4700 4950 3    60   ~ 0
COMP
$Comp
L C C132
U 1 1 5925214F
P 2500 4350
F 0 "C132" H 2525 4450 50  0000 L CNN
F 1 "100n" H 2525 4250 50  0000 L CNN
F 2 "Local:C_0805" H 2538 4200 50  0001 C CNN
F 3 "" H 2500 4350 50  0000 C CNN
	1    2500 4350
	-1   0    0    -1  
$EndComp
$Comp
L GNDPWR #PWR033
U 1 1 59252155
P 2500 4600
F 0 "#PWR033" H 2500 4400 50  0001 C CNN
F 1 "GNDPWR" H 2500 4470 50  0000 C CNN
F 2 "" H 2500 4550 50  0000 C CNN
F 3 "" H 2500 4550 50  0000 C CNN
	1    2500 4600
	1    0    0    -1  
$EndComp
Text Label 2700 4100 2    60   ~ 0
COMP
Wire Wire Line
	2500 4100 2500 4200
Wire Wire Line
	2700 4100 2500 4100
Wire Wire Line
	2500 4500 2500 4600
$Comp
L VPP #PWR034
U 1 1 59253A7C
P 7100 1900
F 0 "#PWR034" H 7100 1750 50  0001 C CNN
F 1 "VPP" H 7100 2050 50  0000 C CNN
F 2 "" H 7100 1900 50  0000 C CNN
F 3 "" H 7100 1900 50  0000 C CNN
	1    7100 1900
	1    0    0    -1  
$EndComp
$Comp
L D_Zener D140
U 1 1 59256896
P 5700 5650
F 0 "D140" H 5700 5750 50  0000 C CNN
F 1 "15V" H 5700 5550 50  0000 C CNN
F 2 "Local:D_MiniMELF_Standard" H 5700 5650 50  0001 C CNN
F 3 "" H 5700 5650 50  0000 C CNN
	1    5700 5650
	0    -1   1    0   
$EndComp
Text Label 5700 4600 3    60   ~ 0
VOUT
Connection ~ 5700 4900
$Comp
L VPP #PWR035
U 1 1 592475D9
P 3800 6700
F 0 "#PWR035" H 3800 6550 50  0001 C CNN
F 1 "VPP" H 3800 6850 50  0000 C CNN
F 2 "" H 3800 6700 50  0000 C CNN
F 3 "" H 3800 6700 50  0000 C CNN
	1    3800 6700
	1    0    0    -1  
$EndComp
$Comp
L GNDPWR #PWR036
U 1 1 592475DF
P 3800 7200
F 0 "#PWR036" H 3800 7000 50  0001 C CNN
F 1 "GNDPWR" H 3800 7070 50  0000 C CNN
F 2 "" H 3800 7150 50  0000 C CNN
F 3 "" H 3800 7150 50  0000 C CNN
	1    3800 7200
	1    0    0    -1  
$EndComp
$Comp
L CP C102
U 1 1 592475E5
P 3800 6950
F 0 "C102" H 3825 7050 50  0000 L CNN
F 1 "47uF 400V" H 3600 6850 50  0000 L CNN
F 2 "Local:CP_Radial_D16.0mm_P7.50mm" H 3838 6800 50  0001 C CNN
F 3 "" H 3800 6950 50  0000 C CNN
	1    3800 6950
	1    0    0    -1  
$EndComp
Wire Wire Line
	3800 6800 3800 6700
Wire Wire Line
	3800 7100 3800 7200
Wire Wire Line
	2300 6900 2200 6900
Wire Wire Line
	2600 6900 2700 6900
Wire Wire Line
	2700 6900 2700 6800
Wire Wire Line
	7700 2100 8000 2100
Connection ~ 8000 2100
$Comp
L R R124
U 1 1 5924B4B7
P 8000 4250
F 0 "R124" V 8080 4250 50  0000 C CNN
F 1 "0R4" V 8000 4250 50  0000 C CNN
F 2 "Local:R_1206" V 7930 4250 50  0001 C CNN
F 3 "" H 8000 4250 50  0000 C CNN
	1    8000 4250
	-1   0    0    -1  
$EndComp
Wire Wire Line
	8000 4500 8000 4400
Connection ~ 8200 1600
Wire Wire Line
	7800 1600 7700 1600
Wire Wire Line
	7800 1300 7700 1300
Wire Wire Line
	7700 2100 7700 2000
Wire Wire Line
	7700 1300 7700 1700
Connection ~ 7700 1600
$Comp
L D_Bridge_+-AA D100
U 1 1 59396DB5
P 1900 6900
F 0 "D100" H 1650 6700 50  0000 L CNN
F 1 "DB107S" H 1950 7100 50  0000 L CNN
F 2 "Local:DB4S" H 1900 6900 50  0001 C CNN
F 3 "" H 1900 6900 50  0000 C CNN
	1    1900 6900
	1    0    0    1   
$EndComp
$EndSCHEMATC
